%!PS
%%BoundingBox: -176 -89 176 171 
%%HiResBoundingBox: -175.99834 -88.43123 175.99834 170.32874 
%%Creator: MetaPost 2.00
%%CreationDate: 2022.03.04:1331
%%Pages: 1
%*Font: cmr10 9.96265 9.96265 41:c
%*Font: cmmi7 6.97385 6.97385 61:c4001
%*Font: cmr7 6.97385 6.97385 28:d04
%*Font: cmsy7 6.97385 6.97385 00:8
%%BeginProlog
%%EndProlog
%%Page: 1 1
 1 0 0 setrgbcolor 0 1 dtransform truncate idtransform setlinewidth pop
 [] 0 setdash 1 setlinecap 1 setlinejoin 10 setmiterlimit
newpath -113.3858 85.03937 moveto
-111.62253 83.01436 -109.7286 81.10692 -107.71617 79.32928 curveto
-105.92871 77.75038 -104.04968 76.27577 -102.04652 74.98103 curveto
-100.25037 73.8201 -98.36058 72.80806 -96.37689 72.00824 curveto
-94.54907 71.27126 -92.65117 70.71861 -90.70726 70.39339 curveto
-88.83475 70.08011 -86.93289 69.98021 -85.03763 70.09103 curveto
-83.12013 70.20316 -81.22229 70.5301 -79.36798 71.0305 curveto
-77.41998 71.55618 -75.52914 72.27063 -73.69835 73.11833 curveto
-71.73839 74.02585 -69.8525 75.08348 -68.02872 76.24036 curveto
-66.07054 77.48247 -64.18675 78.83711 -62.35909 80.2642 curveto
-60.41042 81.7858 -58.52696 83.38858 -56.68944 85.04262 curveto
-54.75401 86.78476 -52.87021 88.58315 -51.0198 90.41531 curveto
-49.09915 92.31705 -47.21474 94.25493 -45.35017 96.21169 curveto
-43.44473 98.21132 -41.56007 100.23059 -39.68053 102.2546 curveto
-37.79057 104.28981 -35.90578 106.32982 -34.0109 108.36044 curveto
-32.13632 110.36931 -30.25186 112.36902 -28.34126 114.34367 curveto
-26.48187 116.2654 -24.59781 118.16327 -22.67163 120.01807 curveto
-20.82669 121.79463 -18.94344 123.53134 -17.00198 125.20197 curveto
-15.17009 126.77832 -13.28717 128.29512 -11.33235 129.71631 curveto
-9.50938 131.04164 -7.62555 132.28255 -5.66272 133.39046 curveto
-3.84024 134.41914 -1.95296 135.33116 0.00693 136.06546 curveto
1.84431 136.75385 3.7389 137.28331 5.67656 137.59337 curveto
7.55087 137.8933 9.45338 137.98573 11.34619 137.84186 curveto
13.2758 137.69519 15.17834 137.30421 17.01582 136.69739 curveto
19.00044 136.04198 20.89311 135.14044 22.68547 134.06586 curveto
24.70511 132.85501 26.58691 131.43134 28.3551 129.87656 curveto
30.38666 128.0902 32.26251 126.13634 34.02473 124.08409 curveto
36.05273 121.72232 37.92717 119.23415 39.69437 116.67155 curveto
41.71114 113.74707 43.58653 110.7283 45.36401 107.6526 curveto
47.36641 104.18773 49.24356 100.6524 51.03365 97.07329 curveto
53.02058 93.10062 54.89967 89.07516 56.70328 85.016 curveto
58.6746 80.57938 60.55539 76.10324 62.37292 71.60144 curveto
64.32864 66.75739 66.21092 61.8841 68.04256 56.99179 curveto
69.98264 51.80984 71.86583 46.60684 73.71219 41.39078 curveto
75.63606 35.95576 77.51991 30.50668 79.38182 25.05013 curveto
81.28865 19.46193 83.17242 13.8659 85.05147 8.2683 curveto
86.9395 2.64389 88.82274 -2.98213 90.7211 -8.60307 curveto
92.58789 -14.13051 94.46928 -19.65303 96.39073 -25.16171 curveto
98.23209 -30.4408 100.11021 -35.7071 102.06038 -40.94699 curveto
103.86986 -45.80887 105.7413 -50.6478 107.73001 -55.43921 curveto
109.49838 -59.69978 111.35931 -63.92227 113.39964 -68.05965 curveto
115.10928 -71.52647 116.94508 -74.93336 119.06927 -78.16339 curveto
120.70827 -80.65564 122.52179 -83.04356 124.73892 -85.04132 curveto
126.35808 -86.50027 128.23528 -87.75192 130.40855 -87.91354 curveto
132.47418 -88.06715 134.44254 -87.20474 136.07819 -85.93018 curveto
138.64192 -83.9324 140.31038 -81.07571 141.74782 -78.16599 curveto
144.05634 -73.49295 145.85782 -68.59299 147.41747 -63.62057 curveto
149.72473 -56.2646 151.50194 -48.75757 153.0871 -41.21365 curveto
155.27669 -30.79324 157.10071 -20.30078 158.75673 -9.7826 curveto
160.9387 4.07622 162.829 17.97937 164.42638 31.91766 curveto stroke
 0 2 dtransform truncate idtransform setlinewidth pop
newpath -56.6929 85.03937 moveto
-54.76636 86.79095 -52.87608 88.58202 -51.02327 90.41142 curveto
-49.09991 92.31047 -47.21745 94.25032 -45.35362 96.2078 curveto
-43.44894 98.20815 -41.56372 100.2269 -39.68399 102.2507 curveto
-37.79384 104.28572 -35.90921 106.3259 -34.01436 108.35655 curveto
-32.13982 110.36545 -30.25526 112.36505 -28.34473 114.33977 curveto
-26.48529 116.26166 -24.60133 118.15985 -22.67508 120.01482 curveto
-20.83018 121.79143 -18.94685 123.52805 -17.00545 125.19872 curveto
-15.17348 126.7752 -13.29062 128.29228 -11.33582 129.71371 curveto
-9.51286 131.03926 -7.62901 132.28035 -5.66618 133.3885 curveto
-3.84372 134.4174 -1.95645 135.32968 0.00346 136.06416 curveto
1.84084 136.75273 3.73546 137.2823 5.6731 137.59273 curveto
7.54736 137.89299 9.44987 137.98602 11.34273 137.84251 curveto
13.27234 137.69621 15.17487 137.30537 17.01237 136.69868 curveto
18.99695 136.04344 20.8896 135.1421 22.682 134.0678 curveto
24.70157 132.85733 26.5834 131.43416 28.35164 129.8798 curveto
30.38322 128.09395 32.2591 126.14052 34.02127 124.08862 curveto
36.04933 121.72713 37.92374 119.23915 39.69092 116.67674 curveto
41.70767 113.75247 43.58308 110.73393 45.36055 107.65845 curveto
47.36295 104.19379 49.24007 100.65866 51.03018 97.07977 curveto
53.01706 93.10751 54.8962 89.08252 56.69983 85.0238 curveto
58.6712 80.58763 60.55205 76.11195 62.36946 71.61053 curveto
64.32521 66.7665 66.2073 61.89313 68.0391 57.00087 curveto
69.97925 51.81917 71.86287 46.61655 73.70872 41.40051 curveto
75.63206 35.96552 77.51436 30.51613 79.37837 25.0605 curveto
81.28743 19.47305 83.17732 13.87907 85.048 8.27867 curveto stroke
 0 0 1 setrgbcolor
newpath -56.6929 85.03937 moveto
85.03935 8.30463 lineto stroke
 0 0 0 setrgbcolor 0.5 0 dtransform exch truncate exch idtransform pop setlinewidth
 [3 3 ] 0 setdash
newpath 28.34645 0 moveto
28.34645 129.88435 lineto stroke
newpath -56.6929 0 moveto
-56.6929 85.03937 lineto stroke
newpath 85.03935 0 moveto
85.03935 8.30463 lineto stroke
-70.4858 81.63547 moveto
(A) cmr10 9.96265 fshow
 0 3 dtransform truncate idtransform setlinewidth pop [] 0 setdash
newpath -56.6929 85.03937 moveto 0 0 rlineto stroke
88.03935 4.90073 moveto
(B) cmr10 9.96265 fshow
newpath 85.03935 8.30463 moveto 0 0 rlineto stroke
-60.1958 -6.0026 moveto
(a) cmmi7 6.97385 fshow
newpath -56.6929 0 moveto 0 0 rlineto stroke
81.9454 -7.8429 moveto
(b) cmmi7 6.97385 fshow
newpath 85.03935 0 moveto 0 0 rlineto stroke
5.18355 -8.2304 moveto
(\(1) cmr7 6.97385 fshow
14.08235 -8.2304 moveto
(\000) cmsy7 6.97385 fshow
22.12315 -8.2304 moveto
(t) cmmi7 6.97385 fshow
25.13275 -8.2304 moveto
(\)) cmr7 6.97385 fshow
28.24605 -8.2304 moveto
(a) cmmi7 6.97385 fshow
34.38165 -8.2304 moveto
(+) cmr7 6.97385 fshow
42.31184 -8.2304 moveto
(tb) cmmi7 6.97385 fshow
newpath 28.34645 0 moveto 0 0 rlineto stroke
30.44644 133.72784 moveto
(f) cmmi7 6.97385 fshow
35.11304 133.72784 moveto
(\(\(1) cmr7 6.97385 fshow
47.12514 133.72784 moveto
(\000) cmsy7 6.97385 fshow
55.16594 133.72784 moveto
(t) cmmi7 6.97385 fshow
58.17554 133.72784 moveto
(\)) cmr7 6.97385 fshow
61.28885 133.72784 moveto
(a) cmmi7 6.97385 fshow
67.42444 133.72784 moveto
(+) cmr7 6.97385 fshow
75.35464 133.72784 moveto
(tb) cmmi7 6.97385 fshow
81.86774 133.72784 moveto
(\)) cmr7 6.97385 fshow
newpath 28.34645 129.88435 moveto 0 0 rlineto stroke
30.44644 133.72784 moveto
(f) cmmi7 6.97385 fshow
35.11304 133.72784 moveto
(\(\(1) cmr7 6.97385 fshow
47.12514 133.72784 moveto
(\000) cmsy7 6.97385 fshow
55.16594 133.72784 moveto
(t) cmmi7 6.97385 fshow
58.17554 133.72784 moveto
(\)) cmr7 6.97385 fshow
61.28885 133.72784 moveto
(a) cmmi7 6.97385 fshow
67.42444 133.72784 moveto
(+) cmr7 6.97385 fshow
75.35464 133.72784 moveto
(tb) cmmi7 6.97385 fshow
81.86774 133.72784 moveto
(\)) cmr7 6.97385 fshow
newpath 28.34645 129.88435 moveto 0 0 rlineto stroke
-41.86584 31.66827 moveto
(\(1) cmr7 6.97385 fshow
-32.96704 31.66827 moveto
(\000) cmsy7 6.97385 fshow
-24.92624 31.66827 moveto
(t) cmmi7 6.97385 fshow
-21.91664 31.66827 moveto
(\)) cmr7 6.97385 fshow
-18.80334 31.66827 moveto
(f) cmmi7 6.97385 fshow
-14.13675 31.66827 moveto
(\() cmr7 6.97385 fshow
-11.02344 31.66827 moveto
(a) cmmi7 6.97385 fshow
-6.70195 31.66827 moveto
(\)) cmr7 6.97385 fshow
-1.77444 31.66827 moveto
(+) cmr7 6.97385 fshow
6.15565 31.66827 moveto
(tf) cmmi7 6.97385 fshow
13.83185 31.66827 moveto
(\() cmr7 6.97385 fshow
16.94516 31.66827 moveto
(b) cmmi7 6.97385 fshow
20.44876 31.66827 moveto
(\)) cmr7 6.97385 fshow
newpath 28.34645 38.99866 moveto 0 0 rlineto stroke
 0 0.5 dtransform truncate idtransform setlinewidth pop
newpath -175.74834 0 moveto
175.74834 0 lineto stroke
newpath 172.0518 -1.53119 moveto
175.74834 0 lineto
172.0518 1.53119 lineto
 closepath
gsave fill grestore stroke
 0.5 0 dtransform exch truncate exch idtransform pop setlinewidth
newpath 0 -85.03937 moveto
0 170.07874 lineto stroke
 0 0.5 dtransform truncate idtransform setlinewidth pop
newpath 1.53143 166.3816 moveto
0 170.07874 lineto
-1.53143 166.3816 lineto
 closepath
gsave fill grestore stroke
showpage
%%EOF
