%!PS-Adobe-3.0 EPSF-3.0
%%Creator: EpsGraphics 1.0.0 by Thomas Abeel, http://www.sourceforge.net/epsgraphics/
%%Title: GeoGebra, http://www.geogebra.org/
%%CreationDate: Mon Dec 15 13:28:01 CET 2014
%%BoundingBox: 0 0 481 316
%%DocumentData: Clean7Bit
%%LanguageLevel: 2
%%DocumentProcessColors: Black
%%ColorUsage: Color
%%Origin: 0 0
%%Pages: 1
%%Page: 1 1
%%EndComments

gsave
0.0 316.0 translate
0.0 0.0 0.0 setrgbcolor
0.0 0.0 0.0 setrgbcolor
gsave
newpath
0.0 -0.0 moveto
481.3512615523615 -0.0 lineto
481.3512615523615 -316.1979838818099 lineto
0.0 -316.1979838818099 lineto
0.0 -0.0 lineto
closepath
clip
newpath
1.0 1.0 1.0 setrgbcolor
newpath
0.0 -0.0 moveto
481.3512615523615 -0.0 lineto
481.3512615523615 -316.1979838818099 lineto
0.0 -316.1979838818099 lineto
0.0 -0.0 lineto
closepath
fill
newpath
0.0 0.0 0.0 setrgbcolor
1.0 setlinewidth
10.0 setmiterlimit
0 setlinejoin
0 setlinecap
[ ] 0 setdash
newpath
95.01579883979318 -1.6598319363874534 moveto
95.01579883979318 -316.1979838818099 lineto
stroke
newpath
1.0 setlinewidth
10.0 setmiterlimit
0 setlinejoin
0 setlinecap
[ ] 0 setdash
newpath
95.43075682389005 -0.8299159681937267 moveto
92.526050935212 -3.319663872774907 lineto
stroke
newpath
1.0 setlinewidth
10.0 setmiterlimit
0 setlinejoin
0 setlinecap
[ ] 0 setdash
newpath
94.60084085569632 -0.8299159681937267 moveto
97.50554674437436 -3.319663872774907 lineto
stroke
newpath
1.0 setlinewidth
10.0 setmiterlimit
0 setlinejoin
0 setlinecap
[ ] 0 setdash
newpath
0.0 -192.98020807355866 moveto
479.691429615974 -192.98020807355866 lineto
stroke
newpath
1.0 setlinewidth
10.0 setmiterlimit
0 setlinejoin
0 setlinecap
[ ] 0 setdash
newpath
480.52134558416776 -193.3951660576555 moveto
478.0315976795866 -190.49046016897745 lineto
stroke
newpath
1.0 setlinewidth
10.0 setmiterlimit
0 setlinejoin
0 setlinecap
[ ] 0 setdash
newpath
480.52134558416776 -192.56525008946178 moveto
478.0315976795866 -195.46995597813984 lineto
stroke
newpath
1.0 0.0 0.0 setrgbcolor
2.0 setlinewidth
10.0 setmiterlimit
1 setlinejoin
1 setlinecap
[ ] 0 setdash
newpath
0.0 -218.08802710058393 moveto
3.7605567308778243 -210.41507812157602 lineto
7.5211134617556485 -204.3828138477558 lineto
11.281670192633472 -199.4117266110251 lineto
15.042226923511297 -195.1837089724034 lineto
18.80278365438912 -191.50524979434846 lineto
22.563340385266944 -188.24976460392836 lineto
26.323897116144767 -185.3299511446013 lineto
30.084453847022594 -182.6829983933838 lineto
33.84501057790042 -180.2622413059828 lineto
37.60556730877824 -178.03204475766532 lineto
41.366124039656064 -175.9645870110333 lineto
45.12668077053389 -174.03771958237746 lineto
48.88723750141171 -172.23354892825515 lineto
52.647794232289534 -170.53736004691095 lineto
56.408350963167365 -168.93697063912919 lineto
60.16890769404519 -167.4221232596242 lineto
63.92946442492301 -165.98413073868502 lineto
67.69002115580084 -164.61558492138315 lineto
71.45057788667866 -163.31009073380594 lineto
75.21113461755648 -162.06206356685348 lineto
78.9716913484343 -160.86669128570043 lineto
82.73224807931213 -159.71968095954205 lineto
86.49280481018995 -158.61729685213237 lineto
90.25336154106778 -157.55617046909364 lineto
94.0139182719456 -156.53335121196722 lineto
97.77447500282342 -155.54615441606097 lineto
101.53503173370125 -154.5921740139623 lineto
105.29558846457907 -153.6692572085125 lineto
109.0561451954569 -152.775453818756 lineto
112.81670192633473 -151.9089656258897 lineto
116.57725865721255 -151.06818436380084 lineto
120.33781538809038 -150.2516284015038 lineto
124.0983721189682 -149.45793007962712 lineto
127.85892884984602 -148.68586103743908 lineto
131.61948558072385 -147.93425623177146 lineto
135.38004231160167 -147.20206459107027 lineto
139.1405990424795 -146.48831102485775 lineto
142.90115577335732 -145.79209642373235 lineto
146.66171250423514 -145.11255966883056 lineto
150.42226923511296 -144.4489409493905 lineto
154.1828259659908 -143.80050578167564 lineto
157.9433826968686 -143.16657033600032 lineto
161.70393942774643 -142.5465014367296 lineto
165.46449615862426 -141.93970389876668 lineto
169.22505288950208 -141.3456331910655 lineto
172.9856096203799 -140.76374478258006 lineto
176.74616635125773 -140.19357012334052 lineto
180.50672308213555 -139.63464066337704 lineto
184.26727981301337 -139.0865131797452 lineto
188.0278365438912 -138.54878244003862 lineto
191.78839327476902 -138.02106853887636 lineto
195.54895000564684 -137.5029915708775 lineto
199.30950673652467 -136.99422228471187 lineto
203.0700634674025 -136.4944187655366 lineto
206.83062019828031 -136.00327708904695 lineto
210.59117692915814 -135.52050599445087 lineto
214.351733660036 -135.04581422095626 lineto
218.1122903909138 -134.5789358347965 lineto
221.87284712179164 -134.1196302292303 lineto
225.63340385266946 -133.6676441340037 lineto
229.39396058354728 -133.22274960588814 lineto
233.1545173144251 -132.78474402868042 lineto
236.91507404530293 -132.3533867956393 lineto
240.67563077618075 -131.928500617587 lineto
244.43618750705858 -131.50989554183303 lineto
248.1967442379364 -131.09736895217424 lineto
251.95730096881422 -130.69076888645822 lineto
255.71785769969205 -130.28991805550723 lineto
259.47841443056984 -129.8946644971689 lineto
263.2389711614477 -129.50483092226537 lineto
266.9995278923255 -129.12030335918246 lineto
270.76008462320334 -128.74090451874233 lineto
274.52064135408114 -128.3665330928434 lineto
278.281198084959 -127.99702445582064 lineto
282.0417548158368 -127.63227729957241 lineto
285.80231154671463 -127.27217765248444 lineto
289.5628682775925 -126.91657355240437 lineto
293.3234250084703 -126.56538901825598 lineto
297.08398173934813 -126.21849741491232 lineto
300.8445384702259 -125.87579743427177 lineto
304.6050952011038 -125.53720043174546 lineto
308.3656519319816 -125.20259243571911 lineto
312.1262086628594 -124.87188480160384 lineto
315.8867653937372 -124.54500154832343 lineto
319.6473221246151 -124.22184136777632 lineto
323.40787885549287 -123.90231561537361 lineto
327.1684355863707 -123.5863609735518 lineto
330.9289923172485 -123.27388879772202 lineto
334.68954904812637 -122.96482310680808 lineto
338.45010577900416 -122.65908791973379 lineto
342.210662509882 -122.35661991893565 lineto
345.9712192407598 -122.05733045982477 lineto
349.73177597163766 -121.76118155186306 lineto
353.49233270251545 -121.46809721397433 lineto
357.2528894333933 -121.17800146508239 lineto
361.0134461642711 -120.89085631464916 lineto
364.77400289514895 -120.60658578159843 lineto
368.53455962602675 -120.32512654836671 lineto
372.2951163569046 -120.04645328792861 lineto
376.0556730877824 -119.77047735569525 lineto
379.81622981866025 -119.49717342464122 lineto
383.57678654953804 -119.22647817720302 lineto
387.3373432804159 -118.95834095932989 lineto
391.0979000112937 -118.69271111697101 lineto
394.85845674217154 -118.42955065958829 lineto
398.61901347304934 -118.16880893313093 lineto
402.3795702039272 -117.91044794706086 lineto
406.140126934805 -117.65441704732727 lineto
409.90068366568283 -117.40069090690476 lineto
413.66124039656063 -117.14920620822984 lineto
417.4217971274385 -116.89992496076444 lineto
421.1823538583163 -116.65282183748312 lineto
424.9429105891941 -116.4078588478478 lineto
428.703467320072 -116.16499800132041 lineto
432.4640240509498 -115.92418864385014 lineto
436.2245807818276 -115.68541811192429 lineto
439.9851375127054 -115.44863575149206 lineto
443.7456942435833 -115.21381623552807 lineto
447.50625097446107 -114.98092157349421 lineto
451.2668077053389 -114.7499391018778 lineto
455.0273644362167 -114.52080550311533 lineto
458.78792116709457 -114.2935207772068 lineto
462.54847789797236 -114.06804693361413 lineto
466.3090346288502 -113.84434598179922 lineto
470.069591359728 -113.62239259473667 lineto
473.83014809060586 -113.40217410891377 lineto
477.59070482148365 -113.18363987027975 lineto
481.3512615523615 -112.9667898788346 lineto
stroke
newpath
grestore
grestore
showpage

%%EOF