%!PS
%%BoundingBox: -142 -57 142 157 
%%HiResBoundingBox: -141.98225 -56.9429 141.98225 156.15549 
%%Creator: MetaPost 2.00
%%CreationDate: 2020.10.08:0934
%%Pages: 1
%*Font: cmmi10 9.96265 9.96265 3b:8000000000100004
%*Font: cmr10 9.96265 9.96265 28:c
%*Font: cmsy10 9.96265 9.96265 43:c
%*Font: cmmi7 6.97385 6.97385 66:8
%%BeginProlog
%%EndProlog
%%Page: 1 1
 1 0 0 setrgbcolor 0 2 dtransform truncate idtransform setlinewidth pop
 [] 0 setdash 1 setlinecap 1 setlinejoin 10 setmiterlimit
newpath -107.7166 -52.46533 moveto
-107.7166 -52.46533 lineto
-106.78233 -49.35759 -105.83725 -46.2533 -104.88177 -43.15204 curveto
-103.94751 -40.11998 -103.00285 -37.09096 -102.04697 -34.06583 curveto
-101.11313 -31.1099 -100.16805 -28.15744 -99.21214 -25.20842 curveto
-98.2783 -22.32733 -97.33366 -19.45012 -96.37733 -16.57637 curveto
-95.44392 -13.77097 -94.49884 -10.96945 -93.54251 -8.17183 curveto
-92.6091 -5.44212 -91.66446 -2.71587 -90.70769 0.00563 curveto
-89.77472 2.65964 -88.82964 5.30934 -87.87288 7.95471 curveto
-86.9399 10.53346 -85.99525 13.10834 -85.03806 15.67801 curveto
-84.10551 18.1815 -83.16086 20.67981 -82.20323 23.1738 curveto
-81.27069 25.6016 -80.32648 28.02464 -79.36842 30.4425 curveto
-78.43631 32.79462 -77.49165 35.14154 -76.5336 37.48326 curveto
-75.60193 39.76012 -74.65727 42.03178 -73.69878 44.29738 curveto
-72.76753 46.49898 -71.82289 48.69495 -70.86397 50.88486 curveto
-69.93272 53.01118 -68.98851 55.13103 -68.02914 57.24481 curveto
-67.09834 59.29588 -66.15411 61.34047 -65.19432 63.37813 curveto
-64.26395 65.3535 -63.3193 67.32152 -62.35951 69.28262 curveto
-61.42957 71.18274 -60.48491 73.07594 -59.52469 74.96135 curveto
-58.59518 76.78664 -57.65053 78.60414 -56.68988 80.41298 curveto
-55.76079 82.16301 -54.81615 83.90482 -53.85506 85.63712 curveto
-52.92598 87.31145 -51.98175 88.97755 -51.02023 90.6333 curveto
-50.09158 92.2328 -49.14737 93.82365 -48.18542 95.40326 curveto
-47.2572 96.92795 -46.31299 98.44267 -45.3506 99.94615 curveto
-44.42282 101.39557 -43.4786 102.83504 -42.51578 104.26154 curveto
-41.58844 105.63612 -40.64378 106.99947 -39.68097 108.3494 curveto
-38.75362 109.64915 -37.8094 110.93724 -36.84615 112.21062 curveto
-35.91924 113.43597 -34.975 114.64793 -34.01132 115.84476 curveto
-33.08484 116.99571 -32.1402 118.13199 -31.17651 119.25182 curveto
-30.25003 120.32796 -29.3058 121.38852 -28.34169 122.43092 curveto
-27.4152 123.4331 -26.471 124.41798 -25.50688 125.38382 curveto
-24.58038 126.3116 -23.63617 127.2208 -22.67206 128.1092 curveto
-21.74557 128.96303 -20.80136 129.79652 -19.83723 130.60751 curveto
-18.91075 131.38695 -17.96611 132.14517 -17.00243 132.87831 curveto
-16.07507 133.58377 -15.13086 134.26631 -14.1676 134.92203 curveto
-13.23982 135.55396 -12.29474 136.1608 -11.33278 136.73866 curveto
-10.40414 137.29663 -9.45906 137.82779 -8.49797 138.32822 curveto
-7.5676 138.81223 -6.62294 139.26768 -5.66315 139.6907 curveto
-4.73148 140.10118 -3.78639 140.48094 -2.82832 140.8261 curveto
-1.89449 141.16261 -0.9494 141.46625 0.00648 141.73398 curveto
0.94249 141.99654 1.888 142.22404 2.84131 142.4148 curveto
3.7799 142.60251 4.72542 142.75476 5.67612 142.86852 curveto
6.61775 142.98141 7.56326 143.0571 8.51094 143.09517 curveto
9.4556 143.1328 10.40111 143.1328 11.34576 143.09473 curveto
12.29344 143.05667 13.23895 142.98012 14.18057 142.86679 curveto
15.13129 142.75217 16.0768 142.59991 17.0154 142.41176 curveto
17.9687 142.22058 18.91422 141.99265 19.85022 141.73009 curveto
20.8061 141.46191 21.75119 141.15785 22.68503 140.8209 curveto
23.6431 140.47531 24.58818 140.09512 25.51985 139.68422 curveto
26.47964 139.26076 27.42429 138.80487 28.35468 138.32043 curveto
29.31575 137.81999 30.26083 137.28885 31.18948 136.73045 curveto
32.15187 136.15172 33.09653 135.54445 34.0243 134.91208 curveto
34.98712 134.25594 35.93178 133.57297 36.85912 132.86707 curveto
37.8228 132.1335 38.76703 131.37483 39.69394 130.59497 curveto
40.65805 129.78354 41.60228 128.94962 42.52876 128.0958 curveto
43.49287 127.20694 44.43709 126.29733 45.36357 125.36911 curveto
46.3277 124.40283 47.27191 123.41753 48.1984 122.41536 curveto
49.1625 121.37209 50.10674 120.31108 51.03322 119.23451 curveto
51.9969 118.11424 52.94154 116.97798 53.86803 115.82701 curveto
54.83171 114.6302 55.77594 113.41782 56.70285 112.19202 curveto
57.6661 110.9182 58.61075 109.62968 59.53767 108.3295 curveto
60.50049 106.9787 61.44513 105.61449 62.37248 104.23947 curveto
63.33487 102.81255 64.27953 101.3735 65.2073 99.92366 curveto
66.1697 98.42018 67.1139 96.90459 68.04213 95.37991 curveto
69.00407 93.79987 69.94829 92.20901 70.87694 90.60907 curveto
71.83846 88.95247 72.78268 87.28592 73.71176 85.61073 curveto
74.67285 83.878 75.61707 82.13533 76.54657 80.3853 curveto
77.50723 78.57645 78.45189 76.75896 79.3814 74.93367 curveto
80.34206 73.04825 81.28627 71.15463 82.21622 69.25365 curveto
83.176 67.29211 84.12065 65.32278 85.05103 63.34698 curveto
86.01082 61.30888 86.95503 59.26387 87.88585 57.21237 curveto
88.84477 55.09859 89.78943 52.97874 90.72067 50.85242 curveto
91.6796 48.6625 92.62424 46.46611 93.55548 44.26408 curveto
94.51398 41.9976 95.45863 39.72551 96.3903 37.44823 curveto
97.34836 35.10606 98.29301 32.75829 99.22513 30.4053 curveto
100.18275 27.98744 101.12784 25.56483 102.05994 23.13702 curveto
103.01756 20.64305 103.96222 18.14388 104.89476 15.63994 curveto
105.85196 13.06984 106.7966 10.49454 107.72957 7.91534 curveto
108.68677 5.2691 109.63098 2.61855 110.56439 -0.03633 curveto
111.52115 -2.75783 112.4658 -5.48364 113.39922 -8.21336 curveto
114.35597 -11.01141 115.30063 -13.81335 116.23402 -16.6192 curveto
117.19035 -19.49294 118.13501 -22.37102 119.06885 -25.2521 curveto
120.02475 -28.20198 120.96939 -31.15575 121.90367 -34.11255 curveto
122.85956 -37.13768 123.80421 -40.16626 124.73848 -43.19789 curveto
125.69438 -46.29958 126.63947 -49.4043 127.5733 -52.51248 curveto stroke
 0 0 0 setrgbcolor 0.5 0 dtransform exch truncate exch idtransform pop setlinewidth
 [3 3 ] 0 setdash
newpath 45.35449 0 moveto
45.35449 125.37863 lineto stroke
 0 0.5 dtransform truncate idtransform setlinewidth pop
newpath 45.35449 125.37863 moveto
0 125.37863 lineto stroke
 0.5 0 dtransform exch truncate exch idtransform pop setlinewidth [] 0 setdash
newpath -141.73225 -2.83482 moveto
-141.73225 2.83482 lineto stroke
newpath -113.3858 -2.83482 moveto
-113.3858 2.83482 lineto stroke
newpath -85.03935 -2.83482 moveto
-85.03935 2.83482 lineto stroke
newpath -56.6929 -2.83482 moveto
-56.6929 2.83482 lineto stroke
newpath -28.34645 -2.83482 moveto
-28.34645 2.83482 lineto stroke
newpath 0 -2.83482 moveto
0 2.83482 lineto stroke
newpath 28.34645 -2.83482 moveto
28.34645 2.83482 lineto stroke
newpath 56.6929 -2.83482 moveto
56.6929 2.83482 lineto stroke
newpath 85.03935 -2.83482 moveto
85.03935 2.83482 lineto stroke
newpath 113.3858 -2.83482 moveto
113.3858 2.83482 lineto stroke
newpath 141.73225 -2.83482 moveto
141.73225 2.83482 lineto stroke
 0 0.5 dtransform truncate idtransform setlinewidth pop
newpath -2.83482 -28.34645 moveto
2.83482 -28.34645 lineto stroke
newpath -2.83482 0 moveto
2.83482 0 lineto stroke
newpath -2.83482 28.34645 moveto
2.83482 28.34645 lineto stroke
newpath -2.83482 56.6929 moveto
2.83482 56.6929 lineto stroke
newpath -2.83482 85.03935 moveto
2.83482 85.03935 lineto stroke
newpath -2.83482 113.3858 moveto
2.83482 113.3858 lineto stroke
newpath -2.83482 141.73225 moveto
2.83482 141.73225 lineto stroke
newpath -141.73225 0 moveto
141.73225 0 lineto stroke
newpath 138.03589 -1.53113 moveto
141.73225 0 lineto
138.03589 1.53113 lineto
 closepath
gsave fill grestore stroke
 0.5 0 dtransform exch truncate exch idtransform pop setlinewidth
newpath 0 -56.6929 moveto
0 155.90549 lineto stroke
 0 0.5 dtransform truncate idtransform setlinewidth pop
newpath 1.5307 152.21013 moveto
0 155.90549 lineto
-1.5307 152.21013 lineto
 closepath
gsave fill grestore stroke
 0 0 1 setrgbcolor 0 1.2 dtransform truncate idtransform setlinewidth pop
newpath -107.7166 0 moveto
130.39384 0 lineto stroke
 0 0 0 setrgbcolor
42.50754 -7.2895 moveto
(x) cmmi10 9.96265 fshow
 0 3 dtransform truncate idtransform setlinewidth pop
newpath 45.35449 0 moveto 0 0 rlineto stroke
48.35449 122.88799 moveto
(\() cmr10 9.96265 fshow
52.2289 122.88799 moveto
(x;) cmmi10 9.96265 fshow
62.35059 122.88799 moveto
(f) cmmi10 9.96265 fshow
68.30049 122.88799 moveto
(\() cmr10 9.96265 fshow
72.1749 122.88799 moveto
(x) cmmi10 9.96265 fshow
77.86879 122.88799 moveto
(\)\)) cmr10 9.96265 fshow
newpath 45.35449 125.37863 moveto 0 0 rlineto stroke
-22.3926 122.88797 moveto
(f) cmmi10 9.96265 fshow
-16.44269 122.88797 moveto
(\() cmr10 9.96265 fshow
-12.5683 122.88797 moveto
(x) cmmi10 9.96265 fshow
-6.87439 122.88797 moveto
(\)) cmr10 9.96265 fshow
newpath 0 125.37863 moveto 0 0 rlineto stroke
 1 0 0 setrgbcolor
92.80855 55.83006 moveto
(C) cmsy10 9.96265 fshow
98.05415 54.33566 moveto
(f) cmmi7 6.97385 fshow
 0 0 1 setrgbcolor 0 0.5 dtransform truncate idtransform setlinewidth pop
newpath -107.7166 -52.46533 moveto
127.55904 -52.46533 lineto stroke
newpath 123.86418 -53.99582 moveto
127.55904 -52.46533 lineto
123.86418 -50.93484 lineto
 closepath
gsave fill grestore stroke
newpath -104.02174 -50.93484 moveto
-107.7166 -52.46533 lineto
-104.02174 -53.99582 lineto
 closepath
gsave fill grestore stroke
 0 0 0 setrgbcolor
-34.77135 -46.61493 moveto
(D) cmsy10 9.96265 fshow
-27.08624 -48.10933 moveto
(f) cmmi7 6.97385 fshow
showpage
%%EOF
