%!PS-Adobe-3.0 EPSF-3.0
%%Creator: EpsGraphics 1.0.0 by Thomas Abeel, http://www.sourceforge.net/epsgraphics/
%%Title: GeoGebra, http://www.geogebra.org/
%%CreationDate: Tue May 21 18:14:05 CEST 2013
%%BoundingBox: 0 0 316 257
%%DocumentData: Clean7Bit
%%LanguageLevel: 2
%%DocumentProcessColors: Black
%%ColorUsage: Color
%%Origin: 0 0
%%Pages: 1
%%Page: 1 1
%%EndComments

gsave
0.0 257.0 translate
0.0 0.0 0.0 setrgbcolor
0.0 0.0 0.0 setrgbcolor
gsave
newpath
0.0 -0.0 moveto
316.6975048972202 -0.0 lineto
316.6975048972202 -257.1802151837771 lineto
0.0 -257.1802151837771 lineto
0.0 -0.0 lineto
closepath
clip
newpath
1.0 1.0 1.0 setrgbcolor
newpath
0.0 -0.0 moveto
316.6975048972202 -0.0 lineto
316.6975048972202 -257.1802151837771 lineto
0.0 -257.1802151837771 lineto
0.0 -0.0 lineto
closepath
fill
newpath
0.0 0.0 0.0 setrgbcolor
1.0 setlinewidth
10.0 setmiterlimit
0 setlinejoin
0 setlinecap
[ ] 0 setdash
newpath
208.56794494014156 -1.0920603617145523 moveto
208.56794494014156 -257.1802151837771 lineto
stroke
newpath
1.0 setlinewidth
10.0 setmiterlimit
0 setlinejoin
0 setlinecap
[ ] 0 setdash
newpath
208.8409600305702 -0.5460301808572762 moveto
206.92985439756973 -2.1841207234291047 lineto
stroke
newpath
1.0 setlinewidth
10.0 setmiterlimit
0 setlinejoin
0 setlinecap
[ ] 0 setdash
newpath
208.2949298497129 -0.5460301808572762 moveto
210.2060354827134 -2.1841207234291047 lineto
stroke
newpath
1.0 setlinewidth
10.0 setmiterlimit
0 setlinejoin
0 setlinecap
[ ] 0 setdash
newpath
0.0 -227.72877138464273 moveto
315.6054445355056 -227.72877138464273 lineto
stroke
newpath
1.0 setlinewidth
10.0 setmiterlimit
0 setlinejoin
0 setlinecap
[ ] 0 setdash
newpath
316.1514747163629 -228.00178647507136 moveto
314.51338417379105 -226.0906808420709 lineto
stroke
newpath
1.0 setlinewidth
10.0 setmiterlimit
0 setlinejoin
0 setlinecap
[ ] 0 setdash
newpath
316.1514747163629 -227.45575629421407 moveto
314.51338417379105 -229.36686192721456 lineto
stroke
newpath
0.0 0.0 0.0 setrgbcolor
1.0 setlinewidth
10.0 setmiterlimit
0 setlinejoin
0 setlinecap
[ ] 0 setdash
newpath
7.378339465353643 -233.89128144457635 moveto
7.378339465353643 -233.52868327760083 lineto
9.548596141221918 -233.52868327760083 lineto
9.548596141221918 -233.89128144457635 lineto
closepath
10.649721457110859 -235.33900794948602 moveto
10.70126727650141 -235.0315104751907 10.77458675867507 -234.76578290276836 10.8696799039894 -234.54182521473834 curveto
10.964773053554726 -234.31786751669665 11.133185683346996 -234.01037005241298 11.374917791061929 -233.6193328193447 curveto
12.452047640018666 -231.88632687424104 lineto
10.420431439758682 -231.88632687424104 lineto
10.420431439758682 -231.3930867206346 lineto
12.953286282602493 -231.3930867206346 lineto
12.953286282602493 -231.88632687424104 lineto
11.941921757318937 -233.3776007524711 11.375806510258373 -234.5284944118536 11.254940456400906 -235.33900794948602 curveto
closepath
fill
newpath
1.0 setlinewidth
10.0 setmiterlimit
0 setlinejoin
0 setlinecap
[ ] 0 setdash
newpath
10.142748089747874 -227.72877138464273 moveto
10.142748089747874 -229.91289210807182 lineto
stroke
newpath
0.0 0.0 0.0 setrgbcolor
1.0 setlinewidth
10.0 setmiterlimit
0 setlinejoin
0 setlinecap
[ ] 0 setdash
newpath
35.771908869932005 -233.89128144457635 moveto
35.771908869932005 -233.52868327760083 lineto
37.94216554580028 -233.52868327760083 lineto
37.94216554580028 -233.89128144457635 lineto
closepath
39.160602033357776 -233.2940609342637 moveto
39.411221362118724 -232.96878903948885 39.726717314426296 -232.80615310664223 40.10708989568362 -232.80615310664223 curveto
40.45191365298592 -232.80615310664223 40.73408256268316 -232.920353758223 40.95359664579195 -233.14875505117425 curveto
41.173110738713774 -233.37715635433582 41.282867775361645 -233.66998992152526 41.282867775361645 -234.0272557571922 curveto
41.282867775361645 -234.43784487026863 41.15977991354111 -234.77555884102438 40.91360420090494 -235.0403976943297 curveto
40.66742847726387 -235.30523655947425 40.355043048341564 -235.43765598020732 39.97644790905273 -235.43765598020732 curveto
39.540974607304975 -235.43765598020732 39.20059447458972 -235.26257793848424 38.955307482937805 -234.91242187069128 curveto
38.7100204803207 -234.56226578724514 38.58737698997734 -234.076135402784 38.58737698997734 -233.45403071381173 curveto
38.58737698997734 -232.769715525351 38.72823927227738 -232.2382603836052 39.00996382428338 -231.85966524431637 curveto
39.29168838888346 -231.48107008810302 39.688502313494226 -231.29177252692088 40.20040560041997 -231.29177252692088 curveto
40.43502795074937 -231.29177252692088 40.72830587817269 -231.34154090426347 41.080239387934135 -231.44107765449903 curveto
41.080239387934135 -231.8996576892034 lineto
40.70875399991259 -231.75746232536738 40.404811426319824 -231.686364649806 40.168411644510364 -231.686364649806 curveto
39.49653855038526 -231.686364649806 39.160602033357776 -232.22226342726293 39.160602033357776 -233.2940609342637 curveto
closepath
40.75496750285314 -234.14456692886074 moveto
40.75496750285314 -233.84595666480513 40.687869065543026 -233.61133432782464 40.55367219692187 -233.4406998988494 curveto
40.41947532230164 -233.2700654622462 40.233288273777944 -233.18474825157256 39.99511105 -233.18474825157256 curveto
39.77293079400625 -233.18474825157256 39.58185578378385 -233.25940081758645 39.42188600661956 -233.4087059429398 curveto
39.26191622230406 -233.5580110749676 39.18193133729751 -233.7375327151361 39.18193133729751 -233.94727086741815 curveto
39.18193133729751 -234.27787508833686 39.25791698484738 -234.54315829921424 39.409888273153456 -234.7431205206696 curveto
39.56185956825318 -234.943082751064 39.76315487338987 -235.04306385732218 40.01377419094727 -235.04306385732218 curveto
40.23950933103692 -235.04306385732218 40.41947532830071 -234.96174588362848 40.55367219692187 -234.79910994351144 curveto
40.687869071542096 -234.636473996124 40.75496750285314 -234.41829299200853 40.75496750285314 -234.14456692886074 curveto
closepath
fill
newpath
1.0 setlinewidth
10.0 setmiterlimit
0 setlinejoin
0 setlinecap
[ ] 0 setdash
newpath
38.489204782661254 -227.72877138464273 moveto
38.489204782661254 -229.91289210807182 lineto
stroke
newpath
0.0 0.0 0.0 setrgbcolor
1.0 setlinewidth
10.0 setmiterlimit
0 setlinejoin
0 setlinecap
[ ] 0 setdash
newpath
64.16547827451036 -233.89128144457635 moveto
64.16547827451036 -233.52868327760083 lineto
66.33573495037864 -233.52868327760083 lineto
66.33573495037864 -233.89128144457635 lineto
closepath
67.27955664971202 -235.35500492744083 moveto
67.27955664971202 -234.88576024076661 lineto
67.54084063076067 -234.99062932159566 67.78968250579337 -235.04306385732218 68.02608228760282 -235.04306385732218 curveto
68.28558882660353 -235.04306385732218 68.48955029000496 -234.96663384926032 68.63796669437404 -234.81377383997 curveto
68.78638310537787 -234.6609138238463 68.86059130424505 -234.4502869479976 68.86059130424505 -234.18189321075528 curveto
68.86059130424505 -233.59000500878793 68.45266835424052 -233.2940609342637 67.63682249070261 -233.2940609342637 curveto
67.54439550420922 -233.2940609342637 67.44752491672776 -233.30028198143154 67.3462107245237 -233.31272407521098 curveto
67.3462107245237 -231.3930867206346 lineto
69.34316680588161 -231.3930867206346 lineto
69.34316680588161 -231.85166675533898 lineto
67.80745692222052 -231.85166675533898 lineto
67.80745692222052 -232.89147032240118 lineto
68.31402790588628 -232.89147032240118 68.70950873890966 -233.0078927765419 68.99389945386841 -233.24073767441436 curveto
69.27829018154041 -233.47358258269583 69.42048553266315 -233.79618830398977 69.42048553266315 -234.20855484067994 curveto
69.42048553266315 -234.59248232303713 69.29117662367479 -234.89331437248978 69.03255881725919 -235.1110510136301 curveto
68.77394099928246 -235.32878766450398 68.41534207766966 -235.43765598020732 67.95676204979868 -235.43765598020732 curveto
67.75768854042828 -235.43765598020732 67.5319534092379 -235.4101056284641 67.27955664971202 -235.35500492744083 curveto
closepath
fill
newpath
1.0 setlinewidth
10.0 setmiterlimit
0 setlinejoin
0 setlinecap
[ ] 0 setdash
newpath
66.83566147557464 -227.72877138464273 moveto
66.83566147557464 -229.91289210807182 lineto
stroke
newpath
0.0 0.0 0.0 setrgbcolor
1.0 setlinewidth
10.0 setmiterlimit
0 setlinejoin
0 setlinecap
[ ] 0 setdash
newpath
92.55904767908872 -233.89128144457635 moveto
92.55904767908872 -233.52868327760083 lineto
94.729304354957 -233.52868327760083 lineto
94.729304354957 -233.89128144457635 lineto
closepath
97.06486313635824 -235.33900794948602 moveto
97.06486313635824 -234.2218856556423 lineto
95.28919858337511 -234.2218856556423 lineto
95.28919858337511 -233.82462736976467 lineto
97.06486313635824 -231.3930867206346 lineto
97.55810328996466 -231.3930867206346 lineto
97.55810328996466 -233.79263341385507 lineto
98.08600356247317 -233.79263341385507 lineto
98.08600356247317 -234.2218856556423 lineto
97.55810328996466 -234.2218856556423 lineto
97.55810328996466 -235.33900794948602 lineto
closepath
95.80376804092127 -233.79263341385507 moveto
97.09952325526031 -233.79263341385507 lineto
97.09952325526031 -232.03829816481166 lineto
closepath
fill
newpath
1.0 setlinewidth
10.0 setmiterlimit
0 setlinejoin
0 setlinecap
[ ] 0 setdash
newpath
95.18211816848802 -227.72877138464273 moveto
95.18211816848802 -229.91289210807182 lineto
stroke
newpath
0.0 0.0 0.0 setrgbcolor
1.0 setlinewidth
10.0 setmiterlimit
0 setlinejoin
0 setlinecap
[ ] 0 setdash
newpath
120.95261708366709 -233.89128144457635 moveto
120.95261708366709 -233.52868327760083 lineto
123.12287375953537 -233.52868327760083 lineto
123.12287375953537 -233.89128144457635 lineto
closepath
123.95738277617758 -235.3096801565689 moveto
123.95738277617758 -234.81910616595493 lineto
124.33420049034298 -234.96841129798273 124.63103329550557 -235.04306385732218 124.84788121566162 -235.04306385732218 curveto
125.09850054442256 -235.04306385732218 125.30246200822128 -234.96974437284425 125.45976562243284 -234.82310541044365 curveto
125.61706924367641 -234.67646644148775 125.69572104726618 -234.48672450942436 125.69572104726618 -234.2538796115519 curveto
125.69572104726618 -233.69931769259148 125.3073499597891 -233.42203675790213 124.53060781955803 -233.42203675790213 curveto
124.32264710614558 -233.42203675790213 lineto
124.32264710614558 -233.067437079904 lineto
124.50661235262582 -233.06477091691153 lineto
125.23536359228532 -233.06477091691153 125.59973917953737 -232.80793054098274 125.59973917953737 -232.2942498120885 curveto
125.59973917953737 -231.89077046720388 125.35978450306412 -231.68903081279848 124.87987517157123 -231.68903081279848 curveto
124.61681374847463 -231.68903081279848 124.32709070641853 -231.7627946577884 124.01070603602693 -231.91032234117324 curveto
124.01070603602693 -231.4517423064689 lineto
124.32175839441818 -231.34687322563985 124.62392352866456 -231.29443868991333 124.91720145346576 -231.29443868991333 curveto
125.72416014323507 -231.29443868991333 126.12763945204586 -231.59927000113674 126.12763945204586 -232.20893259632956 curveto
126.12763945204586 -232.67284497084452 125.85302465563758 -233.00344917102473 125.3037950873735 -233.20074522952737 curveto
125.94011934053961 -233.34827291950722 126.25828143867675 -233.69665155431042 126.25828143867675 -234.2458811225745 curveto
126.25828143867675 -234.61736651059604 126.1356379373682 -234.90886698985315 125.89035094571628 -235.1203825841037 curveto
125.64506394309917 -235.33189818780977 125.30823868597784 -235.43765598020732 124.87987517157123 -235.43765598020732 curveto
124.63636561100208 -235.43765598020732 124.32886814759244 -235.39499737105652 123.95738277617758 -235.3096801565689 curveto
closepath
fill
newpath
1.0 setlinewidth
10.0 setmiterlimit
0 setlinejoin
0 setlinecap
[ ] 0 setdash
newpath
123.52857486140141 -227.72877138464273 moveto
123.52857486140141 -229.91289210807182 lineto
stroke
newpath
0.0 0.0 0.0 setrgbcolor
1.0 setlinewidth
10.0 setmiterlimit
0 setlinejoin
0 setlinecap
[ ] 0 setdash
newpath
149.34618648824545 -233.89128144457635 moveto
149.34618648824545 -233.52868327760083 lineto
151.51644316411372 -233.52868327760083 lineto
151.51644316411372 -233.89128144457635 lineto
closepath
152.2496379870422 -235.33900794948602 moveto
152.2496379870422 -234.87776175178922 lineto
152.4024980031659 -234.52049590015125 152.71177291267583 -234.13123610762122 153.17746270842076 -233.70998236108858 curveto
153.47873912656956 -233.4406998988494 lineto
153.86622149302266 -233.09054381540327 154.0599626589274 -232.74305391068222 154.0599626589274 -232.39823016879475 curveto
154.0599626589274 -232.17782735484894 153.99375294264127 -232.00452676502658 153.8613335159886 -231.87832838526364 curveto
153.72891408341633 -231.7521299998592 153.54717063993303 -231.68903081279848 153.31610318402906 -231.68903081279848 curveto
153.04237710864476 -231.68903081279848 152.71977138917833 -231.7947886146515 152.34828601776348 -232.00630420890207 curveto
152.34828601776348 -231.5423918482128 lineto
152.69844210120962 -231.37708973775344 153.04593200593067 -231.29443868991333 153.39075574781813 -231.29443868991333 curveto
153.76046369379176 -231.29443868991333 154.05729649927218 -231.39397544459854 154.28125418730218 -231.59304894506965 curveto
154.50521188534387 -231.79212245444006 154.61719072435304 -232.05607258966134 154.61719072435304 -232.3848993538324 curveto
154.61719072435304 -232.62129914620976 154.56075693933062 -232.83103729729996 154.44788937433137 -233.01411382005466 curveto
154.33502180428653 -233.1971903509935 154.12483928716202 -233.4193705988031 153.8173418266129 -233.68065456817146 curveto
153.61471343918538 -233.8539551626818 lineto
153.19345967382122 -234.21122101431976 152.9499501320836 -234.55248987155514 152.88418477924938 -234.87776175178922 curveto
154.59852758340577 -234.87776175178922 lineto
154.59852758340577 -235.33900794948602 lineto
closepath
fill
newpath
1.0 setlinewidth
10.0 setmiterlimit
0 setlinejoin
0 setlinecap
[ ] 0 setdash
newpath
151.8750315543148 -227.72877138464273 moveto
151.8750315543148 -229.91289210807182 lineto
stroke
newpath
0.0 0.0 0.0 setrgbcolor
1.0 setlinewidth
10.0 setmiterlimit
0 setlinejoin
0 setlinecap
[ ] 0 setdash
newpath
177.7397558928238 -233.89128144457635 moveto
177.7397558928238 -233.52868327760083 lineto
179.91001256869208 -233.52868327760083 lineto
179.91001256869208 -233.89128144457635 lineto
closepath
181.01113788458102 -235.33900794948602 moveto
181.01113788458102 -234.9444158266009 lineto
181.8003221303513 -234.9444158266009 lineto
181.8003221303513 -231.83033745139923 lineto
181.01113788458102 -232.02763351284182 lineto
181.01113788458102 -231.6223767379868 lineto
182.3282224028598 -231.29443868991333 lineto
182.3282224028598 -234.9444158266009 lineto
183.1174066486301 -234.9444158266009 lineto
183.1174066486301 -235.33900794948602 lineto
closepath
fill
newpath
1.0 setlinewidth
10.0 setmiterlimit
0 setlinejoin
0 setlinecap
[ ] 0 setdash
newpath
180.2214882472282 -227.72877138464273 moveto
180.2214882472282 -229.91289210807182 lineto
stroke
newpath
0.0 0.0 0.0 setrgbcolor
1.0 setlinewidth
10.0 setmiterlimit
0 setlinejoin
0 setlinecap
[ ] 0 setdash
newpath
213.0253566329298 -235.43765598020732 moveto
212.61832240394926 -235.43765598020732 212.28905128276236 -235.2461365995407 212.03754324422073 -234.86309785533064 curveto
211.78603519443578 -234.48005909399743 211.6602811807866 -233.98015353513463 211.6602811807866 -233.36338117206785 curveto
211.6602811807866 -232.74127645528534 211.78692392670305 -232.24092654659768 212.04020940721318 -231.86233140730883 curveto
212.29349489904604 -231.48373625109548 212.6272096322259 -231.29443868991333 213.0413536108846 -231.29443868991333 curveto
213.45549760805696 -231.29443868991333 213.78921233404589 -231.48373626802 214.04249781455601 -231.86233140730883 curveto
214.2957833063889 -232.24092656352218 214.4224260409826 -232.73861032002367 214.4224260409826 -233.35538268309045 curveto
214.4224260409826 -233.98815205216064 214.29578329506614 -234.49338992600346 214.04249781455601 -234.87109634430803 curveto
213.78921232272316 -235.24880277949742 213.45016526339944 -235.43765598020732 213.0253566329298 -235.43765598020732 curveto
closepath
213.03068895891474 -235.04306385732218 moveto
213.5870283199231 -235.04306385732218 213.86519797555695 -234.47783728607408 213.86519797555695 -233.34738419411306 curveto
213.86519797555695 -232.24181524028816 213.5905831791487 -231.68903081279848 213.0413536108846 -231.68903081279848 curveto
212.493901460116 -231.68903081279848 212.22017540920473 -232.24714761585477 212.22017540920473 -233.36338117206785 curveto
212.22017540920473 -234.48316966227637 212.49034660049313 -235.04306385732218 213.03068895891474 -235.04306385732218 curveto
closepath
fill
newpath
1.0 setlinewidth
10.0 setmiterlimit
0 setlinejoin
0 setlinecap
[ ] 0 setdash
newpath
208.5679449401416 -227.72877138464273 moveto
208.5679449401416 -229.91289210807182 lineto
stroke
newpath
0.0 0.0 0.0 setrgbcolor
1.0 setlinewidth
10.0 setmiterlimit
0 setlinejoin
0 setlinecap
[ ] 0 setdash
newpath
236.16018615116593 -235.33900794948602 moveto
236.16018615116593 -234.9444158266009 lineto
236.9493703969362 -234.9444158266009 lineto
236.9493703969362 -231.83033745139923 lineto
236.16018615116593 -232.02763351284182 lineto
236.16018615116593 -231.6223767379868 lineto
237.4772706694447 -231.29443868991333 lineto
237.4772706694447 -234.9444158266009 lineto
238.26645491521498 -234.9444158266009 lineto
238.26645491521498 -235.33900794948602 lineto
closepath
fill
newpath
1.0 setlinewidth
10.0 setmiterlimit
0 setlinejoin
0 setlinecap
[ ] 0 setdash
newpath
236.91440163305498 -227.72877138464273 moveto
236.91440163305498 -229.91289210807182 lineto
stroke
newpath
0.0 0.0 0.0 setrgbcolor
1.0 setlinewidth
10.0 setmiterlimit
0 setlinejoin
0 setlinecap
[ ] 0 setdash
newpath
264.1858250627838 -235.33900794948602 moveto
264.1858250627838 -234.87776175178922 lineto
264.33868507890753 -234.52049590015125 264.6479599884174 -234.13123610762122 265.11364978416236 -233.70998236108858 curveto
265.41492620231116 -233.4406998988494 lineto
265.8024085687643 -233.09054381540327 265.996149734669 -232.74305391068222 265.996149734669 -232.39823016879475 curveto
265.996149734669 -232.17782735484894 265.92994001838287 -232.00452676502658 265.79752059173023 -231.87832838526364 curveto
265.6651011591579 -231.7521299998592 265.48335771567463 -231.68903081279848 265.2522902597707 -231.68903081279848 curveto
264.97856418438636 -231.68903081279848 264.65595846491993 -231.7947886146515 264.2844730935051 -232.00630420890207 curveto
264.2844730935051 -231.5423918482128 lineto
264.63462917695125 -231.37708973775344 264.98211908167224 -231.29443868991333 265.32694282355976 -231.29443868991333 curveto
265.6966507695334 -231.29443868991333 265.9934835750138 -231.39397544459854 266.2174412630438 -231.59304894506965 curveto
266.4413989610855 -231.79212245444006 266.55337780009467 -232.05607258966134 266.55337780009467 -232.3848993538324 curveto
266.55337780009467 -232.62129914620976 266.49694401507224 -232.83103729729996 266.384076450073 -233.01411382005466 curveto
266.27120888002815 -233.1971903509935 266.06102636290365 -233.4193705988031 265.7535289023545 -233.68065456817146 curveto
265.550900514927 -233.8539551626818 lineto
265.1296467495628 -234.21122101431976 264.8861372078252 -234.55248987155514 264.820371854991 -234.87776175178922 curveto
266.53471465914737 -234.87776175178922 lineto
266.53471465914737 -235.33900794948602 lineto
closepath
fill
newpath
1.0 setlinewidth
10.0 setmiterlimit
0 setlinejoin
0 setlinecap
[ ] 0 setdash
newpath
265.26085832596834 -227.72877138464273 moveto
265.26085832596834 -229.91289210807182 lineto
stroke
newpath
0.0 0.0 0.0 setrgbcolor
1.0 setlinewidth
10.0 setmiterlimit
0 setlinejoin
0 setlinecap
[ ] 0 setdash
newpath
292.6807086610759 -235.3096801565689 moveto
292.6807086610759 -234.81910616595493 lineto
293.0575263752413 -234.96841129798273 293.3543591804039 -235.04306385732218 293.57120710055995 -235.04306385732218 curveto
293.8218264293209 -235.04306385732218 294.0257878931196 -234.96974437284425 294.1830915073312 -234.82310541044365 curveto
294.34039512857476 -234.67646644148775 294.4190469321645 -234.48672450942436 294.4190469321645 -234.2538796115519 curveto
294.4190469321645 -233.69931769259148 294.03067584468744 -233.42203675790213 293.25393370445636 -233.42203675790213 curveto
293.0459729910439 -233.42203675790213 lineto
293.0459729910439 -233.067437079904 lineto
293.22993823752415 -233.06477091691153 lineto
293.95868947718367 -233.06477091691153 294.3230650644357 -232.80793054098274 294.3230650644357 -232.2942498120885 curveto
294.3230650644357 -231.89077046720388 294.08311038796245 -231.68903081279848 293.6032010564696 -231.68903081279848 curveto
293.3401396333729 -231.68903081279848 293.05041659131683 -231.7627946577884 292.73403192092525 -231.91032234117324 curveto
292.73403192092525 -231.4517423064689 lineto
293.04508427931654 -231.34687322563985 293.3472494135629 -231.29443868991333 293.6405273383641 -231.29443868991333 curveto
294.44748602813337 -231.29443868991333 294.85096533694417 -231.59927000113674 294.85096533694417 -232.20893259632956 curveto
294.85096533694417 -232.67284497084452 294.5763505405359 -233.00344917102473 294.02712097227186 -233.20074522952737 curveto
294.66344522543795 -233.34827291950722 294.9816073235751 -233.69665155431042 294.9816073235751 -234.2458811225745 curveto
294.9816073235751 -234.61736651059604 294.8589638222665 -234.90886698985315 294.6136768306146 -235.1203825841037 curveto
294.36838982799753 -235.33189818780977 294.0315645708762 -235.43765598020732 293.6032010564696 -235.43765598020732 curveto
293.35969149590045 -235.43765598020732 293.0521940324908 -235.39499737105652 292.6807086610759 -235.3096801565689 curveto
closepath
fill
newpath
1.0 setlinewidth
10.0 setmiterlimit
0 setlinejoin
0 setlinecap
[ ] 0 setdash
newpath
293.6073150188817 -227.72877138464273 moveto
293.6073150188817 -229.91289210807182 lineto
stroke
newpath
1.0 setlinewidth
10.0 setmiterlimit
0 setlinejoin
0 setlinecap
[ ] 0 setdash
newpath
206.38382421671244 -256.0752280775561 moveto
208.56794494014156 -256.0752280775561 lineto
stroke
newpath
0.0 0.0 0.0 setrgbcolor
1.0 setlinewidth
10.0 setmiterlimit
0 setlinejoin
0 setlinecap
[ ] 0 setdash
newpath
203.19681337749884 -226.70117308649088 moveto
202.78977914851828 -226.70117308649088 202.46050802733137 -226.50965370582426 202.20899998878974 -226.12661496161422 curveto
201.95749193900483 -225.74357620028098 201.83173792535564 -225.24367064141822 201.83173792535564 -224.62689827835143 curveto
201.83173792535564 -224.00479356156893 201.95838067127207 -223.50444365288126 202.2116661517822 -223.12584851359242 curveto
202.46495164361508 -222.74725335737907 202.79866637679496 -222.55795579619692 203.21281035545363 -222.55795579619692 curveto
203.62695435262597 -222.55795579619692 203.96066907861493 -222.7472533743036 204.21395455912506 -223.12584851359242 curveto
204.4672400509579 -223.50444366980577 204.5938827855516 -224.00212742630725 204.5938827855516 -224.61889978937404 curveto
204.5938827855516 -225.25166915844423 204.4672400396352 -225.75690703228705 204.21395455912506 -226.13461345059162 curveto
203.96066906729217 -226.51231988578098 203.62162200796845 -226.70117308649088 203.19681337749884 -226.70117308649088 curveto
closepath
203.20214570348375 -226.30658096360577 moveto
203.7584850644921 -226.30658096360577 204.036654720126 -225.74135439235766 204.036654720126 -224.61090130039665 curveto
204.036654720126 -223.50533234657175 203.7620399237177 -222.95254791908206 203.21281035545363 -222.95254791908206 curveto
202.66535820468502 -222.95254791908206 202.39163215377374 -223.51066472213836 202.39163215377374 -224.62689827835143 curveto
202.39163215377374 -225.74668676855995 202.66180334506214 -226.30658096360577 203.20214570348375 -226.30658096360577 curveto
closepath
fill
newpath
1.0 setlinewidth
10.0 setmiterlimit
0 setlinejoin
0 setlinecap
[ ] 0 setdash
newpath
206.38382421671244 -227.72877138464273 moveto
208.56794494014156 -227.72877138464273 lineto
stroke
newpath
0.0 0.0 0.0 setrgbcolor
1.0 setlinewidth
10.0 setmiterlimit
0 setlinejoin
0 setlinecap
[ ] 0 setdash
newpath
202.3063149380148 -201.4851367363349 moveto
202.3063149380148 -201.09054461344977 lineto
203.09549918378508 -201.09054461344977 lineto
203.09549918378508 -197.97646623824812 lineto
202.3063149380148 -198.17376229969068 lineto
202.3063149380148 -197.76850552483566 lineto
203.62339945629358 -197.44056747676223 lineto
203.62339945629358 -201.09054461344977 lineto
204.41258370206387 -201.09054461344977 lineto
204.41258370206387 -201.4851367363349 lineto
closepath
fill
newpath
1.0 setlinewidth
10.0 setmiterlimit
0 setlinejoin
0 setlinecap
[ ] 0 setdash
newpath
206.38382421671244 -199.38231469172933 moveto
208.56794494014156 -199.38231469172933 lineto
stroke
newpath
0.0 0.0 0.0 setrgbcolor
1.0 setlinewidth
10.0 setmiterlimit
0 setlinejoin
0 setlinecap
[ ] 0 setdash
newpath
201.93838444505434 -173.09156733175655 moveto
201.93838444505434 -172.63032113405973 lineto
202.09124446117804 -172.27305528242178 202.40051937068796 -171.88379548989175 202.8662091664329 -171.4625417433591 curveto
203.1674855845817 -171.19325928111994 lineto
203.5549679510348 -170.84310319767377 203.74870911693952 -170.49561329295273 203.74870911693952 -170.15078955106526 curveto
203.74870911693952 -169.93038673711948 203.6824994006534 -169.75708614729712 203.55007997400074 -169.63088776753415 curveto
203.41766054142846 -169.5046893821297 203.23591709794516 -169.44159019506898 203.0048496420412 -169.44159019506898 curveto
202.7311235666569 -169.44159019506898 202.40851784719047 -169.547347996922 202.03703247577562 -169.7588635911726 curveto
202.03703247577562 -169.2949512304833 lineto
202.38718855922176 -169.12964912002394 202.7346784639428 -169.04699807218384 203.07950220583027 -169.04699807218384 curveto
203.4492101518039 -169.04699807218384 203.74604295728432 -169.14653482686904 203.97000064531431 -169.3456083273402 curveto
204.193958343356 -169.5446818367106 204.30593718236517 -169.80863197193187 204.30593718236517 -170.13745873610293 curveto
204.30593718236517 -170.37385852848027 204.24950339734275 -170.58359667957046 204.1366358323435 -170.76667320232517 curveto
204.02376826229866 -170.94974973326404 203.81358574517415 -171.17192998107362 203.506088284625 -171.43321395044197 curveto
203.3034598971975 -171.60651454495235 lineto
202.88220613183336 -171.9637803965903 202.63869659009572 -172.30504925382567 202.5729312372615 -172.63032113405973 curveto
204.2872740414179 -172.63032113405973 lineto
204.2872740414179 -173.09156733175655 lineto
closepath
fill
newpath
1.0 setlinewidth
10.0 setmiterlimit
0 setlinejoin
0 setlinecap
[ ] 0 setdash
newpath
206.38382421671244 -171.03585799881594 moveto
208.56794494014156 -171.03585799881594 lineto
stroke
newpath
0.0 0.0 0.0 setrgbcolor
1.0 setlinewidth
10.0 setmiterlimit
0 setlinejoin
0 setlinecap
[ ] 0 setdash
newpath
202.03969863876807 -144.66867013426105 moveto
202.03969863876807 -144.17809614364708 lineto
202.41651635293348 -144.32740127567487 202.71334915809607 -144.40205383501433 202.93019707825212 -144.40205383501433 curveto
203.18081640701308 -144.40205383501433 203.38477787081177 -144.3287343505364 203.54208148502332 -144.1820953881358 curveto
203.6993851062669 -144.03545641917992 203.77803690985667 -143.84571448711654 203.77803690985667 -143.61286958924404 curveto
203.77803690985667 -143.05830767028363 203.38966582237958 -142.78102673559428 202.61292368214853 -142.78102673559428 curveto
202.40496296873607 -142.78102673559428 lineto
202.40496296873607 -142.42642705759616 lineto
202.58892821521633 -142.4237608946037 lineto
203.31767945487582 -142.4237608946037 203.68205504212784 -142.1669205186749 203.68205504212784 -141.65323978978068 curveto
203.68205504212784 -141.24976044489603 203.4421003656546 -141.04802079049063 202.96219103416172 -141.04802079049063 curveto
202.6991296110651 -141.04802079049063 202.40940656900904 -141.12178463548057 202.09302189861742 -141.26931231886542 curveto
202.09302189861742 -140.81073228416105 lineto
202.4040742570087 -140.705863203332 202.70623939125505 -140.65342866760548 202.99951731605626 -140.65342866760548 curveto
203.80647600582554 -140.65342866760548 204.20995531463635 -140.95825997882892 204.20995531463635 -141.56792257402174 curveto
204.20995531463635 -142.03183494853667 203.9353405182281 -142.36243914871687 203.386110949964 -142.55973520721952 curveto
204.0224352031301 -142.70726289719937 204.34059730126725 -143.05564153200257 204.34059730126725 -143.60487110026665 curveto
204.34059730126725 -143.97635648828822 204.2179537999587 -144.26785696754533 203.97266680830677 -144.47937256179588 curveto
203.72737980568968 -144.69088816550195 203.39055454856833 -144.79664595789947 202.96219103416172 -144.79664595789947 curveto
202.71868147359257 -144.79664595789947 202.41118401018295 -144.75398734874867 202.03969863876807 -144.66867013426105 curveto
closepath
fill
newpath
1.0 setlinewidth
10.0 setmiterlimit
0 setlinejoin
0 setlinecap
[ ] 0 setdash
newpath
206.38382421671244 -142.68940130590255 moveto
208.56794494014156 -142.68940130590255 lineto
stroke
newpath
0.0 0.0 0.0 setrgbcolor
1.0 setlinewidth
10.0 setmiterlimit
0 setlinejoin
0 setlinecap
[ ] 0 setdash
newpath
203.5407484035271 -116.30442852259982 moveto
203.5407484035271 -115.18730622875609 lineto
201.76508385054396 -115.18730622875609 lineto
201.76508385054396 -114.79004794287847 lineto
203.5407484035271 -112.35850729374842 lineto
204.0339885571335 -112.35850729374842 lineto
204.0339885571335 -114.75805398696886 lineto
204.56188882964202 -114.75805398696886 lineto
204.56188882964202 -115.18730622875609 lineto
204.0339885571335 -115.18730622875609 lineto
204.0339885571335 -116.30442852259982 lineto
closepath
202.27965330809013 -114.75805398696886 moveto
203.57540852242917 -114.75805398696886 lineto
203.57540852242917 -113.00371873792547 lineto
closepath
fill
newpath
1.0 setlinewidth
10.0 setmiterlimit
0 setlinejoin
0 setlinecap
[ ] 0 setdash
newpath
206.38382421671244 -114.34294461298916 moveto
208.56794494014156 -114.34294461298916 lineto
stroke
newpath
0.0 0.0 0.0 setrgbcolor
1.0 setlinewidth
10.0 setmiterlimit
0 setlinejoin
0 setlinecap
[ ] 0 setdash
newpath
202.14901132145923 -87.92685609597626 moveto
202.14901132145923 -87.45761140930205 lineto
202.41029530250788 -87.5624804901311 202.6591371775406 -87.61491502585761 202.89553695935004 -87.61491502585761 curveto
203.15504349835075 -87.61491502585761 203.35900496175216 -87.53848501779576 203.50742136612126 -87.38562500850543 curveto
203.65583777712507 -87.23276499238173 203.73004597599225 -87.02213811653303 203.73004597599225 -86.75374437929071 curveto
203.73004597599225 -86.16185617732336 203.32212302598774 -85.86591210279914 202.50627716244983 -85.86591210279914 curveto
202.41385017595644 -85.86591210279914 202.31697958847496 -85.87213314996697 202.2156653962709 -85.88457524374641 curveto
202.2156653962709 -83.96493788917006 lineto
204.21262147762883 -83.96493788917006 lineto
204.21262147762883 -84.4235179238744 lineto
202.67691159396773 -84.4235179238744 lineto
202.67691159396773 -85.46332149093661 lineto
203.18348257763347 -85.46332149093661 203.57896341065688 -85.57974394507734 203.86335412561561 -85.81258884294981 curveto
204.1477448532876 -86.04543375123126 204.28994020441036 -86.36803947252521 204.28994020441036 -86.78040600921538 curveto
204.28994020441036 -87.16433349157259 204.160631295422 -87.46516554102523 203.9020134890064 -87.68290218216552 curveto
203.64339567102968 -87.9006388330394 203.28479674941687 -88.00950714874274 202.8262167215459 -88.00950714874274 curveto
202.6271432121755 -88.00950714874274 202.4014080809851 -87.98195679699951 202.14901132145923 -87.92685609597626 curveto
closepath
fill
newpath
1.0 setlinewidth
10.0 setmiterlimit
0 setlinejoin
0 setlinecap
[ ] 0 setdash
newpath
206.38382421671244 -85.99648792007577 moveto
208.56794494014156 -85.99648792007577 lineto
stroke
newpath
0.0 0.0 0.0 setrgbcolor
1.0 setlinewidth
10.0 setmiterlimit
0 setlinejoin
0 setlinecap
[ ] 0 setdash
newpath
202.42362610968334 -57.472342698220785 moveto
202.6742454384443 -57.147070803445935 202.98974139075187 -56.984434870599294 203.3701139720092 -56.984434870599294 curveto
203.7149377293115 -56.984434870599294 203.99710663900873 -57.09863552218008 204.2166207221175 -57.32703681513132 curveto
204.43613481503937 -57.5554381182929 204.54589185168723 -57.84827168548233 204.54589185168723 -58.20553752114925 curveto
204.54589185168723 -58.61612663422571 204.42280398986668 -58.95384060498145 204.17662827723052 -59.21867945828678 curveto
203.93045255358945 -59.48351832343133 203.61806712466714 -59.61593774416439 203.23947198537832 -59.61593774416439 curveto
202.80399868363054 -59.61593774416439 202.4636185509153 -59.440859702441315 202.2183315592634 -59.09070363464836 curveto
201.97304455664627 -58.740547551202205 201.8504010663029 -58.25441716674107 201.8504010663029 -57.632312477768814 curveto
201.8504010663029 -56.94799728930806 201.99126334860296 -56.41654214756228 202.27298790060897 -56.03794700827345 curveto
202.55471246520904 -55.6593518520601 202.9515263898198 -55.47005429087794 203.46342967674553 -55.47005429087794 curveto
203.69805202707494 -55.47005429087794 203.99132995449827 -55.51982266822054 204.3432634642597 -55.6193594184561 curveto
204.3432634642597 -56.077939453160454 lineto
203.97177807623817 -55.93574408932445 203.6678355026454 -55.86464641376308 203.43143572083594 -55.86464641376308 curveto
202.75956262671082 -55.86464641376308 202.42362610968334 -56.40054519122001 202.42362610968334 -57.472342698220785 curveto
closepath
204.01799157917873 -58.322848692817814 moveto
204.01799157917873 -58.02423842876221 203.95089314186862 -57.789616091781724 203.81669627324746 -57.618981662806476 curveto
203.68249939862721 -57.448347226203275 203.49631235010352 -57.36303001552963 203.25813512632558 -57.36303001552963 curveto
203.03595487033184 -57.36303001552963 202.84487986010942 -57.437682581543534 202.68491008294512 -57.58698770689687 curveto
202.52494029862964 -57.736292838924676 202.4449554136231 -57.915814479093164 202.4449554136231 -58.12555263137524 curveto
202.4449554136231 -58.456156852293944 202.52094106117295 -58.72144006317132 202.67291234947902 -58.92140228462669 curveto
202.82488364457876 -59.121364515021064 203.02617894971544 -59.22134562127925 203.27679826727285 -59.22134562127925 curveto
203.50253340736248 -59.22134562127925 203.68249940462627 -59.14002764758553 203.81669627324746 -58.9773917074685 curveto
203.95089314786767 -58.81475576008108 204.01799157917873 -58.596574755965605 204.01799157917873 -58.322848692817814 curveto
closepath
fill
newpath
1.0 setlinewidth
10.0 setmiterlimit
0 setlinejoin
0 setlinecap
[ ] 0 setdash
newpath
206.38382421671244 -57.650031227162366 moveto
208.56794494014156 -57.650031227162366 lineto
stroke
newpath
0.0 0.0 0.0 setrgbcolor
1.0 setlinewidth
10.0 setmiterlimit
0 setlinejoin
0 setlinecap
[ ] 0 setdash
newpath
202.3063149380148 -31.12372030886474 moveto
202.35786075740535 -30.816222834569388 202.43118023957902 -30.55049526214707 202.52627338489333 -30.326537574117058 curveto
202.62136653445867 -30.102579876075357 202.78977916425094 -29.795082411791693 203.03151127196585 -29.40404517872342 curveto
204.1086411209226 -27.67103923361976 lineto
202.0770249206626 -27.67103923361976 lineto
202.0770249206626 -27.177799080013333 lineto
204.60987976350643 -27.177799080013333 lineto
204.60987976350643 -27.67103923361976 lineto
203.59851523822286 -29.16231311184982 203.0323999911623 -30.313206771232316 202.91153393730485 -31.12372030886474 curveto
closepath
fill
newpath
1.0 setlinewidth
10.0 setmiterlimit
0 setlinejoin
0 setlinecap
[ ] 0 setdash
newpath
206.38382421671244 -29.303574534248977 moveto
208.56794494014156 -29.303574534248977 lineto
stroke
newpath
1.0 0.0 0.0 setrgbcolor
2.0 setlinewidth
10.0 setmiterlimit
1 setlinejoin
1 setlinecap
[ ] 0 setdash
newpath
0.0 -227.7106990400699 moveto
2.474199257009533 -227.7090493517183 lineto
4.948398514019066 -227.7072496916984 lineto
7.422597771028598 -227.70528339649144 lineto
9.896797028038131 -227.70315046609747 lineto
12.370996285047664 -227.70080090996035 lineto
14.845195542057196 -227.6982513915988 lineto
17.31939479906673 -227.6954685839754 lineto
19.793594056076262 -227.6924358235715 lineto
22.267793313085793 -227.6891197833496 lineto
24.741992570095327 -227.68550379979106 lineto
27.216191827104858 -227.68157120937718 lineto
29.690391084114392 -227.67725535803314 lineto
32.164590341123926 -227.6725562457589 lineto
34.63878959813346 -227.66742388199842 lineto
37.11298885514299 -227.66184160323292 lineto
39.587188112152525 -227.65572609186896 lineto
42.061387369162055 -227.64907734790648 lineto
44.535586626171586 -227.6417953902333 lineto
47.009785883181124 -227.63386355533072 lineto
49.483985140190654 -227.6252151891239 lineto
51.958184397200185 -227.61576697401935 lineto
54.432383654209715 -227.60546891946095 lineto
56.90658291121925 -227.59422104433648 lineto
59.380782168228784 -227.58194003105243 lineto
61.854981425238314 -227.568559225534 lineto
64.32918068224785 -227.5539453196315 lineto
66.80337993925738 -227.53799833223283 lineto
69.27757919626691 -227.52058495518827 lineto
71.75177845327644 -227.50160520738564 lineto
74.22597771028597 -227.48089245363792 lineto
76.70017696729552 -227.45828005875805 lineto
79.17437622430505 -227.43360138755904 lineto
81.64857548131458 -227.4066898048538 lineto
84.12277473832411 -227.37731202138056 lineto
86.59697399533364 -227.34525141139616 lineto
89.07117325234317 -227.31027468563872 lineto
91.5453725093527 -227.27209856429033 lineto
94.01957176636225 -227.23045643105175 lineto
96.49377102337178 -227.18499835203016 lineto
98.96797028038131 -227.1354077203703 lineto
101.44216953739084 -227.0812846116232 lineto
103.91636879440037 -227.02222910134006 lineto
106.3905680514099 -226.95779127451587 lineto
108.86476730841943 -226.88747122558954 lineto
111.33896656542898 -226.8107357219626 lineto
113.8131658224385 -226.72700154048042 lineto
116.28736507944804 -226.6356354674323 lineto
118.76156433645757 -226.53593763503275 lineto
121.2357635934671 -226.4271415214214 lineto
123.70996285047663 -226.3084306141818 lineto
126.18416210748616 -226.17887175626657 lineto
128.6583613644957 -226.0375151271097 lineto
131.13256062150523 -225.88326093447677 lineto
133.60675987851477 -225.71494273205857 lineto
136.0809591355243 -225.5312607653963 lineto
138.55515839253383 -225.33083196243757 lineto
141.02935764954336 -225.11213994298046 lineto
143.5035569065529 -224.87348502811724 lineto
145.97775616356242 -224.6130508943093 lineto
148.45195542057195 -224.32888790986843 lineto
150.92615467758148 -224.01877982680708 lineto
153.40035393459104 -223.68041041602558 lineto
155.87455319160057 -223.31118016860628 lineto
158.3487524486101 -222.9082562863697 lineto
160.82295170561963 -222.46858934539316 lineto
163.29715096262916 -221.98882997841739 lineto
165.7713502196387 -221.46531221132776 lineto
168.24554947664822 -220.89403679963556 lineto
170.71974873365775 -220.27067122847802 lineto
173.19394799066728 -219.59043306798745 lineto
175.6681472476768 -218.84815662736588 lineto
178.14234650468634 -218.03819297377305 lineto
180.61654576169587 -217.15434327825147 lineto
183.0907450187054 -216.1898754792452 lineto
185.56494427571494 -215.13745762852488 lineto
188.0391435327245 -213.98904124655706 lineto
190.51334278973403 -212.73587798602267 lineto
192.98754204674356 -211.3684363142237 lineto
195.4617413037531 -209.8762515414146 lineto
197.93594056076262 -208.2479924748775 lineto
200.41013981777215 -206.47121146614128 lineto
202.88433907478168 -204.53237773801914 lineto
205.3585383317912 -202.41671074942164 lineto
207.83273758880074 -200.1080635507256 lineto
210.30693684581027 -197.5888727932182 lineto
212.7811361028198 -194.8399087763162 lineto
215.25533535982933 -191.84022545701012 lineto
217.72953461683886 -188.56694382412076 lineto
220.2037338738484 -184.9951185901499 lineto
222.67793313085795 -181.09752156553697 lineto
225.15213238786748 -176.84442503291592 lineto
227.626331644877 -172.20343511192831 lineto
230.10053090188654 -167.13914182533046 lineto
231.3376305303913 -164.43633575523558 lineto
232.57473015889607 -161.61295246380635 lineto
233.81182978740082 -158.66362629802046 lineto
235.0489294159056 -155.58274165207501 lineto
236.28602904441036 -152.3644163038679 lineto
237.52312867291513 -149.00253474203512 lineto
238.76022830141991 -145.49066484835737 lineto
239.99732792992467 -141.8221578788722 lineto
241.23442755842945 -137.9899984922056 lineto
242.4715271869342 -133.98688806716578 lineto
243.70862681543898 -129.80521137570545 lineto
244.94572644394373 -125.43698659236594 lineto
246.1828260724485 -120.8739152848332 lineto
247.41992570095326 -116.10728243282558 lineto
248.65702532945804 -111.12802308216871 lineto
249.8941249579628 -105.92663902720192 lineto
251.13122458646757 -100.49324046957501 lineto
251.74977440071996 -97.68631240286493 lineto
252.36832421497232 -94.8174627006548 lineto
252.9868740292247 -91.88531662265163 lineto
253.6054238434771 -88.88849109680307 lineto
254.2239736577295 -85.82555306050067 lineto
254.84252347198185 -82.69504445585794 lineto
255.46107328623424 -79.49546556619161 lineto
256.07962310048663 -76.22530834305906 lineto
256.698172914739 -72.88301474746156 lineto
257.3167227289914 -69.4669767498443 lineto
257.9352725432438 -65.97558215477275 lineto
258.5538223574962 -62.40716461037665 lineto
259.1723721717485 -58.760024437748264 lineto
259.7909219860009 -55.03242446506283 lineto
260.4094718002533 -51.22259002757849 lineto
261.0280216145057 -47.3287089676363 lineto
261.6465714287581 -43.348923302900886 lineto
262.26512124301047 -39.281341723999454 lineto
262.88367105726286 -35.12402293100313 lineto
263.50222087151525 -30.87499229694561 lineto
264.12077068576764 -26.53222312136465 lineto
264.73932050001997 -22.09364912794109 lineto
265.35787031427236 -17.55715821567934 lineto
265.97642012852475 -12.920586210087851 lineto
266.59496994277714 -8.181727798613286 lineto
267.21351975702953 -3.3383261159413182 lineto
267.8320695712819 1.6119254334310078 lineto
268.4506193855343 6.671383956297716 lineto
stroke
newpath
1.0 0.0 0.0 setrgbcolor
2.0 setlinewidth
10.0 setmiterlimit
1 setlinejoin
1 setlinecap
[ ] 0 setdash
newpath
4.112289799581361 -232.88400506602227 moveto
4.112289799581361 -235.8850381303433 lineto
3.478809472571162 -235.8850381303433 lineto
3.478809472571162 -232.88400506602227 lineto
2.986102551563229 -232.88400506602227 lineto
2.986102551563229 -232.41049451856009 lineto
3.478809472571162 -232.41049451856009 lineto
3.478809472571162 -231.99457309173522 lineto
3.478809472571162 -231.1669960742097 3.8563381635557445 -230.7532076024425 4.6113955117712155 -230.7532076024425 curveto
4.822555627067677 -230.7532076024425 5.062510294101336 -230.7884009549919 5.331259519737351 -230.8587876569442 curveto
5.331259519737351 -231.35789336913405 lineto
5.047579768884529 -231.27044322037491 4.82042268783799 -231.22671814990466 4.649788258862743 -231.22671814990466 curveto
4.442894004481361 -231.22671814990466 4.301587370918229 -231.27630878304248 4.225868343060463 -231.37549004488434 curveto
4.150149311817792 -231.47467131115994 4.112289799581361 -231.65863655868904 4.112289799581361 -231.92738578432505 curveto
4.112289799581361 -232.41049451856009 lineto
4.979326004731685 -232.41049451856009 lineto
4.979326004731685 -232.88400506602227 lineto
closepath
fill
newpath
0.0 0.0 0.0 setrgbcolor
1.0 setlinewidth
10.0 setmiterlimit
1 setlinejoin
1 setlinecap
[ ] 0 setdash
newpath
145.97775616356242 -261.9725098545872 moveto
148.45195542057195 -259.49831059757764 lineto
150.92615467758148 -257.02411134056814 lineto
153.40035393459104 -254.54991208355858 lineto
155.87455319160057 -252.07571282654905 lineto
158.3487524486101 -249.60151356953952 lineto
160.82295170561963 -247.12731431253 lineto
163.29715096262916 -244.65311505552046 lineto
165.7713502196387 -242.17891579851093 lineto
168.24554947664822 -239.7047165415014 lineto
170.71974873365775 -237.23051728449187 lineto
173.19394799066728 -234.75631802748234 lineto
175.6681472476768 -232.2821187704728 lineto
178.14234650468634 -229.80791951346328 lineto
180.61654576169587 -227.33372025645374 lineto
183.0907450187054 -224.8595209994442 lineto
185.56494427571494 -222.38532174243466 lineto
188.0391435327245 -219.91112248542512 lineto
190.51334278973403 -217.4369232284156 lineto
192.98754204674356 -214.96272397140606 lineto
195.4617413037531 -212.48852471439653 lineto
197.93594056076262 -210.014325457387 lineto
200.41013981777215 -207.54012620037747 lineto
202.88433907478168 -205.06592694336794 lineto
205.3585383317912 -202.5917276863584 lineto
207.83273758880074 -200.11752842934888 lineto
210.30693684581027 -197.64332917233935 lineto
212.7811361028198 -195.16912991532982 lineto
215.25533535982933 -192.6949306583203 lineto
217.72953461683886 -190.22073140131073 lineto
220.2037338738484 -187.7465321443012 lineto
222.67793313085795 -185.27233288729167 lineto
225.15213238786748 -182.79813363028214 lineto
227.626331644877 -180.3239343732726 lineto
230.10053090188654 -177.84973511626308 lineto
232.57473015889607 -175.37553585925355 lineto
235.0489294159056 -172.90133660224402 lineto
237.52312867291513 -170.42713734523448 lineto
239.99732792992467 -167.95293808822495 lineto
242.4715271869342 -165.47873883121542 lineto
244.94572644394373 -163.0045395742059 lineto
247.41992570095326 -160.53034031719636 lineto
249.8941249579628 -158.05614106018683 lineto
252.36832421497232 -155.58194180317727 lineto
254.84252347198185 -153.10774254616774 lineto
257.3167227289914 -150.6335432891582 lineto
259.7909219860009 -148.15934403214868 lineto
262.26512124301047 -145.68514477513915 lineto
264.73932050001997 -143.21094551812962 lineto
267.21351975702953 -140.7367462611201 lineto
269.68771901403903 -138.2625386723512 lineto
272.1619182710486 -135.78833941534168 lineto
274.63611752805815 -133.31414015833215 lineto
277.11031678506765 -130.83994090132262 lineto
279.5845160420772 -128.36574164431306 lineto
282.0587152990867 -125.89154238730355 lineto
284.5329145560963 -123.41734313029401 lineto
287.0071138131058 -120.94314387328447 lineto
289.48131307011533 -118.46894461627494 lineto
291.95551232712484 -115.99474535926541 lineto
294.4297115841344 -113.52054610225588 lineto
296.9039108411439 -111.04634684524635 lineto
299.37811009815346 -108.57214758823682 lineto
301.85230935516296 -106.09794833122729 lineto
304.3265086121725 -103.62374907421774 lineto
306.8007078691821 -101.14954981720821 lineto
309.2749071261916 -98.67535056019868 lineto
311.74910638320114 -96.20115130318915 lineto
314.22330564021064 -93.72695204617962 lineto
316.6975048972202 -91.25275278917009 lineto
stroke
newpath
grestore
grestore
showpage

%%EOF