%!PS
%%BoundingBox: -120 -148 120 148 
%%HiResBoundingBox: -119.30501 -147.65146 119.30501 147.65146 
%%Creator: MetaPost 2.00
%%CreationDate: 2020.09.29:1347
%%Pages: 1
%*Font: cmr10 9.96265 9.96265 30:c
%%BeginProlog
%%EndProlog
%%Page: 1 1
 1 0 0 setrgbcolor 0 2 dtransform truncate idtransform setlinewidth pop
 [] 0 setdash 1 setlinecap 1 setlinejoin 10 setmiterlimit
newpath -113.3858 -7.08661 moveto
-113.3858 -7.08661 lineto
-110.55098 -7.26828 lineto
-107.71617 -7.45946 lineto
-106.77109 -7.52477 -105.826 -7.59224 -104.88135 -7.66145 curveto
-102.04652 -7.87425 lineto
-101.10144 -7.94691 -100.15636 -8.02219 -99.21172 -8.09917 curveto
-98.26663 -8.17616 -97.32155 -8.25575 -96.37689 -8.3375 curveto
-95.43181 -8.41925 -94.48672 -8.50359 -93.54208 -8.5901 curveto
-92.597 -8.6766 -91.65192 -8.76614 -90.70726 -8.85826 curveto
-89.76218 -8.9504 -88.8171 -9.04599 -87.87244 -9.14417 curveto
-86.92735 -9.24278 -85.98227 -9.344 -85.03763 -9.44911 curveto
-84.0921 -9.55421 -83.14746 -9.66234 -82.2028 -9.7748 curveto
-81.2573 -9.88727 -80.31221 -10.00317 -79.36798 -10.12386 curveto
-78.42247 -10.24454 -77.47739 -10.3691 -76.53317 -10.49886 curveto
-75.58765 -10.62862 -74.64256 -10.76314 -73.69835 -10.90285 curveto
-72.7524 -11.04256 -71.80775 -11.18788 -70.86353 -11.33884 curveto
-69.91759 -11.49022 -68.9725 -11.64767 -68.02872 -11.8116 curveto
-67.08234 -11.97597 -66.13768 -12.1468 -65.1939 -12.32501 curveto
-64.24751 -12.50409 -63.30243 -12.6905 -62.35909 -12.88557 curveto
-61.41226 -13.08109 -60.46718 -13.28523 -59.52426 -13.4989 curveto
-58.57701 -13.71388 -57.63193 -13.93835 -56.68944 -14.17409 curveto
-55.74133 -14.41112 -54.79625 -14.6594 -53.85463 -14.92021 curveto
-52.90608 -15.18318 -51.96056 -15.45914 -51.0198 -15.74937 curveto
-50.06996 -16.04263 -49.12445 -16.3506 -48.18498 -16.67586 curveto
-47.23341 -17.00502 -46.28833 -17.35191 -45.35017 -17.71826 curveto
-44.39644 -18.09067 -43.45091 -18.48384 -42.51535 -18.8995 curveto
-41.5586 -19.32469 -40.61307 -19.77365 -39.68053 -20.24988 curveto
-38.71988 -20.73993 -37.77393 -21.25854 -36.84572 -21.80786 curveto
-35.87944 -22.37967 -34.93306 -22.98477 -34.0109 -23.62535 curveto
-33.03683 -24.30228 -32.09045 -25.01768 -31.17607 -25.77374 curveto
-30.19121 -26.58777 -29.24483 -27.44765 -28.34126 -28.35164 curveto
-27.34167 -29.35165 -26.39616 -30.404 -25.50644 -31.50264 curveto
-24.48782 -32.76088 -23.54404 -34.07794 -22.67163 -35.44171 curveto
-21.62793 -37.0728 -20.68846 -38.76788 -19.8368 -40.50667 curveto
-18.76196 -42.70091 -17.829 -44.96132 -17.00198 -47.26024 curveto
-15.88692 -50.3589 -14.96562 -53.52245 -14.16718 -56.71712 curveto
-12.99718 -61.39842 -12.09187 -66.14027 -11.33235 -70.90506 curveto
-10.08147 -78.7499 -9.22592 -86.64967 -8.49753 -94.55939 curveto
-7.04768 -110.30402 -6.10217 -126.09145 -5.66272 -141.89662 curveto stroke
newpath 5.6692 141.73442 moveto
5.6692 141.73442 lineto
6.10953 125.95909 7.05461 110.20193 8.50403 94.48717 curveto
9.2324 86.58781 10.0884 78.69843 11.33884 70.8644 curveto
12.09837 66.10437 13.00366 61.36728 14.17366 56.69118 curveto
14.9721 53.49908 15.89384 50.33813 17.00847 47.2425 curveto
17.83548 44.94489 18.76845 42.6862 19.84329 40.49326 curveto
20.69495 38.75534 21.63484 37.06198 22.67812 35.43176 curveto
23.55054 34.06886 24.49432 32.75223 25.51292 31.49486 curveto
26.40265 30.39665 27.34816 29.34474 28.34775 28.34515 curveto
29.25131 27.44159 30.1977 26.58215 31.18257 25.76813 curveto
32.09694 25.0125 33.04332 24.29752 34.01738 23.62103 curveto
34.93954 22.98088 35.88593 22.37578 36.8522 21.80397 curveto
37.78041 21.25465 38.72636 20.73648 39.68703 20.24641 curveto
40.61957 19.77063 41.56508 19.32166 42.52184 18.89648 curveto
43.45741 18.48082 44.40292 18.08807 45.35666 17.71567 curveto
46.29482 17.3493 47.2399 17.00285 48.19148 16.67369 curveto
49.13094 16.34843 50.07645 16.04047 51.02629 15.74721 curveto
51.96706 15.45699 52.91257 15.18146 53.86111 14.91847 curveto
54.80273 14.65767 55.74782 14.4094 56.69592 14.17236 curveto
57.63841 13.93663 58.5835 13.71259 59.53075 13.4976 curveto
60.47366 13.28394 61.41875 13.07935 62.36557 12.88385 curveto
63.30891 12.68877 64.254 12.50279 65.20038 12.32372 curveto
66.14417 12.14551 67.08882 11.97466 68.0352 11.8103 curveto
68.97899 11.64638 69.92407 11.48936 70.87003 11.33798 curveto
71.81424 11.18703 72.7589 11.04213 73.70483 10.90198 curveto
74.64906 10.76227 75.59415 10.62776 76.53966 10.498 curveto
77.48387 10.36824 78.42896 10.24367 79.37448 10.12299 curveto
80.3187 10.00232 81.26378 9.8864 82.20929 9.77394 curveto
83.15395 9.66148 84.09859 9.55334 85.04411 9.44824 curveto
85.98875 9.34314 86.93384 9.24149 87.87892 9.14331 curveto
88.82358 9.04512 89.76866 8.94997 90.71375 8.85783 curveto
91.6584 8.7657 92.60349 8.67616 93.54857 8.58923 curveto
94.49321 8.50229 95.4383 8.41838 96.38338 8.33662 curveto
97.32803 8.25488 98.27312 8.17574 99.2182 8.09874 curveto
100.16286 8.02174 101.10794 7.94649 102.05302 7.87338 curveto
102.99767 7.8003 103.94275 7.72978 104.88783 7.66058 curveto
105.83249 7.59181 106.77757 7.52434 107.72266 7.45903 curveto
110.55748 7.26784 lineto
113.39229 7.08618 lineto stroke
 0 0 0 setrgbcolor 0.5 0 dtransform exch truncate exch idtransform pop setlinewidth
newpath -113.3858 -2.83482 moveto
-113.3858 2.83482 lineto stroke
newpath -85.03935 -2.83482 moveto
-85.03935 2.83482 lineto stroke
newpath -56.6929 -2.83482 moveto
-56.6929 2.83482 lineto stroke
newpath -28.34645 -2.83482 moveto
-28.34645 2.83482 lineto stroke
newpath 0 -2.83482 moveto
0 2.83482 lineto stroke
newpath 28.34645 -2.83482 moveto
28.34645 2.83482 lineto stroke
newpath 56.6929 -2.83482 moveto
56.6929 2.83482 lineto stroke
newpath 85.03935 -2.83482 moveto
85.03935 2.83482 lineto stroke
newpath 113.3858 -2.83482 moveto
113.3858 2.83482 lineto stroke
 0 0.5 dtransform truncate idtransform setlinewidth pop
newpath -2.83482 -141.73225 moveto
2.83482 -141.73225 lineto stroke
newpath -2.83482 -113.3858 moveto
2.83482 -113.3858 lineto stroke
newpath -2.83482 -85.03935 moveto
2.83482 -85.03935 lineto stroke
newpath -2.83482 -56.6929 moveto
2.83482 -56.6929 lineto stroke
newpath -2.83482 -28.34645 moveto
2.83482 -28.34645 lineto stroke
newpath -2.83482 0 moveto
2.83482 0 lineto stroke
newpath -2.83482 28.34645 moveto
2.83482 28.34645 lineto stroke
newpath -2.83482 56.6929 moveto
2.83482 56.6929 lineto stroke
newpath -2.83482 85.03935 moveto
2.83482 85.03935 lineto stroke
newpath -2.83482 113.3858 moveto
2.83482 113.3858 lineto stroke
newpath -2.83482 141.73225 moveto
2.83482 141.73225 lineto stroke
newpath -119.05501 0 moveto
119.05501 0 lineto stroke
newpath 115.35931 -1.53084 moveto
119.05501 0 lineto
115.35931 1.53084 lineto
 closepath
gsave fill grestore stroke
 0.5 0 dtransform exch truncate exch idtransform pop setlinewidth
newpath 0 -147.40146 moveto
0 147.40146 lineto stroke
 0 0.5 dtransform truncate idtransform setlinewidth pop
newpath 1.5304 143.70686 moveto
0 147.40146 lineto
-1.5304 143.70686 lineto
 closepath
gsave fill grestore stroke
25.8558 -9.4204 moveto
(1) cmr10 9.96265 fshow
3 25.13625 moveto
(1) cmr10 9.96265 fshow
-7.08128 -8.52039 moveto
(0) cmr10 9.96265 fshow
showpage
%%EOF
