%!PS
%%BoundingBox: -115 -29 115 57 
%%HiResBoundingBox: -114.3858 -28.59645 114.37024 56.9429 
%%Creator: MetaPost 2.00
%%CreationDate: 2020.10.12:2115
%%Pages: 1
%*Font: cmsy10 6.97382 9.96265 00:8
%*Font: cmr10 6.97382 9.96265 30:f
%%BeginProlog
%%EndProlog
%%Page: 1 1
 1 0 0 setrgbcolor 0 2 dtransform truncate idtransform setlinewidth pop
 [] 0 setdash 1 setlinecap 1 setlinejoin 10 setmiterlimit
newpath -113.3858 0 moveto
-113.3858 0 lineto
-113.1025 0.28331 lineto
-112.81918 0.56662 lineto
-112.53587 0.84993 lineto
-112.25256 1.13324 lineto
-111.96925 1.41655 lineto
-111.68594 1.69986 lineto
-111.40265 1.98315 lineto
-111.11934 2.26646 lineto
-110.83603 2.54977 lineto
-110.55272 2.83308 lineto
-110.26941 3.1164 lineto
-109.9861 3.3997 lineto
-109.70279 3.68301 lineto
-109.41948 3.96632 lineto
-109.13617 4.24963 lineto
-108.85286 4.53294 lineto
-108.56955 4.81625 lineto
-108.28624 5.09956 lineto
-108.00293 5.38287 lineto
-107.71962 5.66618 lineto
-107.43633 5.94948 lineto
-107.15302 6.23279 lineto
-106.8697 6.5161 lineto
-106.5864 6.79941 lineto
-106.30309 7.08272 lineto
-106.01978 7.36603 lineto
-105.73647 7.64934 lineto
-105.45316 7.93265 lineto
-105.16985 8.21596 lineto
-104.88654 8.49927 lineto
-104.60323 8.78258 lineto
-104.31992 9.06589 lineto
-104.0366 9.3492 lineto
-103.75331 9.63249 lineto
-103.47 9.9158 lineto
-103.18669 10.19911 lineto
-102.90338 10.48242 lineto
-102.62007 10.76573 lineto
-102.33676 11.04904 lineto
-102.05345 11.33235 lineto
-101.77014 11.61566 lineto
-101.48683 11.89897 lineto
-101.20352 12.18228 lineto
-100.92021 12.46559 lineto
-100.6369 12.7489 lineto
-100.35359 13.03221 lineto
-100.0703 13.3155 lineto
-99.78699 13.59882 lineto
-99.50368 13.88213 lineto
-99.22037 14.16544 lineto
-98.93706 14.44875 lineto
-98.65375 14.73206 lineto
-98.37044 15.01537 lineto
-98.08713 15.29868 lineto
-97.80382 15.58199 lineto
-97.52051 15.8653 lineto
-97.2372 16.1486 lineto
-96.95389 16.43192 lineto
-96.67058 16.71523 lineto
-96.38727 16.99854 lineto
-96.10397 17.28183 lineto
-95.82066 17.56514 lineto
-95.53735 17.84845 lineto
-95.25404 18.13176 lineto
-94.97073 18.41507 lineto
-94.68742 18.69838 lineto
-94.40411 18.98169 lineto
-94.1208 19.265 lineto
-93.8375 19.54831 lineto
-93.55418 19.83162 lineto
-93.27087 20.11493 lineto
-92.98756 20.39824 lineto
-92.70425 20.68155 lineto
-92.42096 20.96484 lineto
-92.13765 21.24815 lineto
-91.85434 21.53146 lineto
-91.57103 21.81477 lineto
-91.28772 22.09808 lineto
-91.00441 22.3814 lineto
-90.7211 22.6647 lineto
-90.43779 22.94801 lineto
-90.15448 23.23132 lineto
-89.87117 23.51463 lineto
-89.58786 23.79794 lineto
-89.30455 24.08125 lineto
-89.02124 24.36456 lineto
-88.73795 24.64786 lineto
-88.45464 24.93117 lineto
-88.17133 25.21448 lineto
-87.88802 25.49779 lineto
-87.6047 25.7811 lineto
-87.3214 26.0644 lineto
-87.03809 26.34772 lineto
-86.75478 26.63103 lineto
-86.47147 26.91434 lineto
-86.18816 27.19765 lineto
-85.90485 27.48096 lineto
-85.62154 27.76427 lineto
-85.33823 28.04758 lineto
-85.05492 28.33089 lineto stroke
newpath -85.03935 0 moveto
-85.03935 0 lineto
-84.75604 0.28331 lineto
-84.47273 0.56662 lineto
-84.18942 0.84993 lineto
-83.90611 1.13324 lineto
-83.6228 1.41655 lineto
-83.3395 1.69986 lineto
-83.0562 1.98315 lineto
-82.77289 2.26646 lineto
-82.48958 2.54977 lineto
-82.20627 2.83308 lineto
-81.92296 3.1164 lineto
-81.63965 3.3997 lineto
-81.35634 3.68301 lineto
-81.07303 3.96632 lineto
-80.78972 4.24963 lineto
-80.50641 4.53294 lineto
-80.2231 4.81625 lineto
-79.93979 5.09956 lineto
-79.65648 5.38287 lineto
-79.37317 5.66618 lineto
-79.08987 5.94948 lineto
-78.80656 6.23279 lineto
-78.52325 6.5161 lineto
-78.23994 6.79941 lineto
-77.95663 7.08272 lineto
-77.67332 7.36603 lineto
-77.39001 7.64934 lineto
-77.1067 7.93265 lineto
-76.8234 8.21596 lineto
-76.54008 8.49927 lineto
-76.25677 8.78258 lineto
-75.97346 9.06589 lineto
-75.69016 9.3492 lineto
-75.40686 9.63249 lineto
-75.12355 9.9158 lineto
-74.84024 10.19911 lineto
-74.55693 10.48242 lineto
-74.27362 10.76573 lineto
-73.99031 11.04904 lineto
-73.707 11.33235 lineto
-73.42369 11.61566 lineto
-73.14038 11.89897 lineto
-72.85707 12.18228 lineto
-72.57376 12.46559 lineto
-72.29045 12.7489 lineto
-72.00714 13.03221 lineto
-71.72385 13.3155 lineto
-71.44054 13.59882 lineto
-71.15723 13.88213 lineto
-70.87392 14.16544 lineto
-70.5906 14.44875 lineto
-70.3073 14.73206 lineto
-70.02399 15.01537 lineto
-69.74068 15.29868 lineto
-69.45737 15.58199 lineto
-69.17406 15.8653 lineto
-68.89075 16.1486 lineto
-68.60744 16.43192 lineto
-68.32413 16.71523 lineto
-68.04082 16.99854 lineto
-67.75752 17.28183 lineto
-67.47421 17.56514 lineto
-67.1909 17.84845 lineto
-66.9076 18.13176 lineto
-66.62428 18.41507 lineto
-66.34097 18.69838 lineto
-66.05766 18.98169 lineto
-65.77435 19.265 lineto
-65.49104 19.54831 lineto
-65.20773 19.83162 lineto
-64.92442 20.11493 lineto
-64.64111 20.39824 lineto
-64.3578 20.68155 lineto
-64.07451 20.96484 lineto
-63.7912 21.24815 lineto
-63.50789 21.53146 lineto
-63.22458 21.81477 lineto
-62.94127 22.09808 lineto
-62.65796 22.3814 lineto
-62.37465 22.6647 lineto
-62.09134 22.94801 lineto
-61.80803 23.23132 lineto
-61.52472 23.51463 lineto
-61.24141 23.79794 lineto
-60.9581 24.08125 lineto
-60.67479 24.36456 lineto
-60.3915 24.64786 lineto
-60.10818 24.93117 lineto
-59.82487 25.21448 lineto
-59.54156 25.49779 lineto
-59.25826 25.7811 lineto
-58.97495 26.0644 lineto
-58.69164 26.34772 lineto
-58.40833 26.63103 lineto
-58.12502 26.91434 lineto
-57.8417 27.19765 lineto
-57.5584 27.48096 lineto
-57.27509 27.76427 lineto
-56.99178 28.04758 lineto
-56.70847 28.33089 lineto stroke
newpath -56.6929 0 moveto
-56.6929 0 lineto
-56.40959 0.28331 lineto
-56.12628 0.56662 lineto
-55.84297 0.84993 lineto
-55.55966 1.13324 lineto
-55.27635 1.41655 lineto
-54.99304 1.69986 lineto
-54.70975 1.98315 lineto
-54.42644 2.26646 lineto
-54.14313 2.54977 lineto
-53.85982 2.83308 lineto
-53.5765 3.1164 lineto
-53.2932 3.3997 lineto
-53.00989 3.68301 lineto
-52.72658 3.96632 lineto
-52.44327 4.24963 lineto
-52.15996 4.53294 lineto
-51.87665 4.81625 lineto
-51.59334 5.09956 lineto
-51.31003 5.38287 lineto
-51.02672 5.66618 lineto
-50.74342 5.94948 lineto
-50.46011 6.23279 lineto
-50.1768 6.5161 lineto
-49.8935 6.79941 lineto
-49.61018 7.08272 lineto
-49.32687 7.36603 lineto
-49.04356 7.64934 lineto
-48.76025 7.93265 lineto
-48.47694 8.21596 lineto
-48.19363 8.49927 lineto
-47.91032 8.78258 lineto
-47.62701 9.06589 lineto
-47.3437 9.3492 lineto
-47.06041 9.63249 lineto
-46.7771 9.9158 lineto
-46.49379 10.19911 lineto
-46.21048 10.48242 lineto
-45.92717 10.76573 lineto
-45.64386 11.04904 lineto
-45.36055 11.33235 lineto
-45.07724 11.61566 lineto
-44.79393 11.89897 lineto
-44.51062 12.18228 lineto
-44.22731 12.46559 lineto
-43.944 12.7489 lineto
-43.66069 13.03221 lineto
-43.3774 13.3155 lineto
-43.09409 13.59882 lineto
-42.81078 13.88213 lineto
-42.52747 14.16544 lineto
-42.24416 14.44875 lineto
-41.96085 14.73206 lineto
-41.67754 15.01537 lineto
-41.39423 15.29868 lineto
-41.11092 15.58199 lineto
-40.8276 15.8653 lineto
-40.5443 16.1486 lineto
-40.26099 16.43192 lineto
-39.97768 16.71523 lineto
-39.69437 16.99854 lineto
-39.41107 17.28183 lineto
-39.12776 17.56514 lineto
-38.84445 17.84845 lineto
-38.56114 18.13176 lineto
-38.27783 18.41507 lineto
-37.99452 18.69838 lineto
-37.71121 18.98169 lineto
-37.4279 19.265 lineto
-37.14459 19.54831 lineto
-36.86128 19.83162 lineto
-36.57797 20.11493 lineto
-36.29466 20.39824 lineto
-36.01135 20.68155 lineto
-35.72806 20.96484 lineto
-35.44475 21.24815 lineto
-35.16144 21.53146 lineto
-34.87813 21.81477 lineto
-34.59482 22.09808 lineto
-34.31151 22.3814 lineto
-34.0282 22.6647 lineto
-33.74489 22.94801 lineto
-33.46158 23.23132 lineto
-33.17827 23.51463 lineto
-32.89496 23.79794 lineto
-32.61165 24.08125 lineto
-32.32834 24.36456 lineto
-32.04504 24.64786 lineto
-31.76173 24.93117 lineto
-31.47842 25.21448 lineto
-31.19511 25.49779 lineto
-30.9118 25.7811 lineto
-30.6285 26.0644 lineto
-30.34518 26.34772 lineto
-30.06187 26.63103 lineto
-29.77856 26.91434 lineto
-29.49525 27.19765 lineto
-29.21194 27.48096 lineto
-28.92863 27.76427 lineto
-28.64532 28.04758 lineto
-28.36201 28.33089 lineto stroke
newpath -28.34645 0 moveto
-28.34645 0 lineto
-28.06314 0.28331 lineto
-27.77983 0.56662 lineto
-27.49652 0.84993 lineto
-27.21321 1.13324 lineto
-26.9299 1.41655 lineto
-26.64659 1.69986 lineto
-26.3633 1.98315 lineto
-26.07999 2.26646 lineto
-25.79668 2.54977 lineto
-25.51337 2.83308 lineto
-25.23006 3.1164 lineto
-24.94675 3.3997 lineto
-24.66344 3.68301 lineto
-24.38013 3.96632 lineto
-24.09682 4.24963 lineto
-23.8135 4.53294 lineto
-23.5302 4.81625 lineto
-23.24689 5.09956 lineto
-22.96358 5.38287 lineto
-22.68027 5.66618 lineto
-22.39697 5.94948 lineto
-22.11366 6.23279 lineto
-21.83035 6.5161 lineto
-21.54704 6.79941 lineto
-21.26373 7.08272 lineto
-20.98042 7.36603 lineto
-20.69711 7.64934 lineto
-20.4138 7.93265 lineto
-20.1305 8.21596 lineto
-19.84718 8.49927 lineto
-19.56387 8.78258 lineto
-19.28056 9.06589 lineto
-18.99725 9.3492 lineto
-18.71396 9.63249 lineto
-18.43065 9.9158 lineto
-18.14734 10.19911 lineto
-17.86403 10.48242 lineto
-17.58072 10.76573 lineto
-17.29741 11.04904 lineto
-17.0141 11.33235 lineto
-16.73079 11.61566 lineto
-16.44748 11.89897 lineto
-16.16417 12.18228 lineto
-15.88086 12.46559 lineto
-15.59755 12.7489 lineto
-15.31424 13.03221 lineto
-15.03094 13.3155 lineto
-14.74763 13.59882 lineto
-14.46432 13.88213 lineto
-14.18102 14.16544 lineto
-13.8977 14.44875 lineto
-13.6144 14.73206 lineto
-13.33109 15.01537 lineto
-13.04778 15.29868 lineto
-12.76447 15.58199 lineto
-12.48116 15.8653 lineto
-12.19785 16.1486 lineto
-11.91454 16.43192 lineto
-11.63123 16.71523 lineto
-11.34792 16.99854 lineto
-11.06462 17.28183 lineto
-10.78131 17.56514 lineto
-10.498 17.84845 lineto
-10.21469 18.13176 lineto
-9.93138 18.41507 lineto
-9.64807 18.69838 lineto
-9.36476 18.98169 lineto
-9.08145 19.265 lineto
-8.79814 19.54831 lineto
-8.51483 19.83162 lineto
-8.23152 20.11493 lineto
-7.94821 20.39824 lineto
-7.6649 20.68155 lineto
-7.3816 20.96484 lineto
-7.0983 21.24815 lineto
-6.81499 21.53146 lineto
-6.53168 21.81477 lineto
-6.24837 22.09808 lineto
-5.96506 22.3814 lineto
-5.68175 22.6647 lineto
-5.39844 22.94801 lineto
-5.11513 23.23132 lineto
-4.83182 23.51463 lineto
-4.54851 23.79794 lineto
-4.2652 24.08125 lineto
-3.98189 24.36456 lineto
-3.6986 24.64786 lineto
-3.41528 24.93117 lineto
-3.13197 25.21448 lineto
-2.84866 25.49779 lineto
-2.56535 25.7811 lineto
-2.28204 26.0644 lineto
-1.99873 26.34772 lineto
-1.71542 26.63103 lineto
-1.43211 26.91434 lineto
-1.1488 27.19765 lineto
-0.8655 27.48096 lineto
-0.58218 27.76427 lineto
-0.29887 28.04758 lineto
-0.01556 28.33089 lineto stroke
newpath 0 0 moveto
0 0 lineto
0.28331 0.28331 lineto
0.56662 0.56662 lineto
0.84993 0.84993 lineto
1.13324 1.13324 lineto
1.41655 1.41655 lineto
1.69986 1.69986 lineto
1.98315 1.98315 lineto
2.26646 2.26646 lineto
2.54977 2.54977 lineto
2.83308 2.83308 lineto
3.1164 3.1164 lineto
3.3997 3.3997 lineto
3.68301 3.68301 lineto
3.96632 3.96632 lineto
4.24963 4.24963 lineto
4.53294 4.53294 lineto
4.81625 4.81625 lineto
5.09956 5.09956 lineto
5.38287 5.38287 lineto
5.66618 5.66618 lineto
5.94948 5.94948 lineto
6.23279 6.23279 lineto
6.5161 6.5161 lineto
6.79941 6.79941 lineto
7.08272 7.08272 lineto
7.36603 7.36603 lineto
7.64934 7.64934 lineto
7.93265 7.93265 lineto
8.21596 8.21596 lineto
8.49927 8.49927 lineto
8.78258 8.78258 lineto
9.06589 9.06589 lineto
9.3492 9.3492 lineto
9.63249 9.63249 lineto
9.9158 9.9158 lineto
10.19911 10.19911 lineto
10.48242 10.48242 lineto
10.76573 10.76573 lineto
11.04904 11.04904 lineto
11.33235 11.33235 lineto
11.61566 11.61566 lineto
11.89897 11.89897 lineto
12.18228 12.18228 lineto
12.46559 12.46559 lineto
12.7489 12.7489 lineto
13.03221 13.03221 lineto
13.3155 13.3155 lineto
13.59882 13.59882 lineto
13.88213 13.88213 lineto
14.16544 14.16544 lineto
14.44875 14.44875 lineto
14.73206 14.73206 lineto
15.01537 15.01537 lineto
15.29868 15.29868 lineto
15.58199 15.58199 lineto
15.8653 15.8653 lineto
16.1486 16.1486 lineto
16.43192 16.43192 lineto
16.71523 16.71523 lineto
16.99854 16.99854 lineto
17.28183 17.28183 lineto
17.56514 17.56514 lineto
17.84845 17.84845 lineto
18.13176 18.13176 lineto
18.41507 18.41507 lineto
18.69838 18.69838 lineto
18.98169 18.98169 lineto
19.265 19.265 lineto
19.54831 19.54831 lineto
19.83162 19.83162 lineto
20.11493 20.11493 lineto
20.39824 20.39824 lineto
20.68155 20.68155 lineto
20.96484 20.96484 lineto
21.24815 21.24815 lineto
21.53146 21.53146 lineto
21.81477 21.81477 lineto
22.09808 22.09808 lineto
22.3814 22.3814 lineto
22.6647 22.6647 lineto
22.94801 22.94801 lineto
23.23132 23.23132 lineto
23.51463 23.51463 lineto
23.79794 23.79794 lineto
24.08125 24.08125 lineto
24.36456 24.36456 lineto
24.64786 24.64786 lineto
24.93117 24.93117 lineto
25.21448 25.21448 lineto
25.49779 25.49779 lineto
25.7811 25.7811 lineto
26.0644 26.0644 lineto
26.34772 26.34772 lineto
26.63103 26.63103 lineto
26.91434 26.91434 lineto
27.19765 27.19765 lineto
27.48096 27.48096 lineto
27.76427 27.76427 lineto
28.04758 28.04758 lineto
28.33089 28.33089 lineto stroke
newpath 28.34645 0 moveto
28.34645 0 lineto
28.62976 0.28331 lineto
28.91307 0.56662 lineto
29.19638 0.84993 lineto
29.47969 1.13324 lineto
29.763 1.41655 lineto
30.04631 1.69986 lineto
30.3296 1.98315 lineto
30.61292 2.26646 lineto
30.89622 2.54977 lineto
31.17953 2.83308 lineto
31.46284 3.1164 lineto
31.74615 3.3997 lineto
32.02946 3.68301 lineto
32.31277 3.96632 lineto
32.59608 4.24963 lineto
32.8794 4.53294 lineto
33.1627 4.81625 lineto
33.44601 5.09956 lineto
33.72932 5.38287 lineto
34.01263 5.66618 lineto
34.29593 5.94948 lineto
34.57924 6.23279 lineto
34.86255 6.5161 lineto
35.14586 6.79941 lineto
35.42917 7.08272 lineto
35.71248 7.36603 lineto
35.99579 7.64934 lineto
36.2791 7.93265 lineto
36.56241 8.21596 lineto
36.84572 8.49927 lineto
37.12903 8.78258 lineto
37.41234 9.06589 lineto
37.69565 9.3492 lineto
37.97894 9.63249 lineto
38.26225 9.9158 lineto
38.54556 10.19911 lineto
38.82887 10.48242 lineto
39.11218 10.76573 lineto
39.3955 11.04904 lineto
39.6788 11.33235 lineto
39.96211 11.61566 lineto
40.24542 11.89897 lineto
40.52873 12.18228 lineto
40.81204 12.46559 lineto
41.09535 12.7489 lineto
41.37866 13.03221 lineto
41.66196 13.3155 lineto
41.94527 13.59882 lineto
42.22858 13.88213 lineto
42.51189 14.16544 lineto
42.7952 14.44875 lineto
43.0785 14.73206 lineto
43.36182 15.01537 lineto
43.64513 15.29868 lineto
43.92844 15.58199 lineto
44.21175 15.8653 lineto
44.49506 16.1486 lineto
44.77837 16.43192 lineto
45.06168 16.71523 lineto
45.34499 16.99854 lineto
45.62828 17.28183 lineto
45.91159 17.56514 lineto
46.1949 17.84845 lineto
46.47821 18.13176 lineto
46.76152 18.41507 lineto
47.04483 18.69838 lineto
47.32814 18.98169 lineto
47.61145 19.265 lineto
47.89476 19.54831 lineto
48.17807 19.83162 lineto
48.46138 20.11493 lineto
48.74469 20.39824 lineto
49.028 20.68155 lineto
49.3113 20.96484 lineto
49.5946 21.24815 lineto
49.87791 21.53146 lineto
50.16122 21.81477 lineto
50.44453 22.09808 lineto
50.72784 22.3814 lineto
51.01115 22.6647 lineto
51.29446 22.94801 lineto
51.57777 23.23132 lineto
51.86108 23.51463 lineto
52.1444 23.79794 lineto
52.4277 24.08125 lineto
52.71101 24.36456 lineto
52.99431 24.64786 lineto
53.27762 24.93117 lineto
53.56093 25.21448 lineto
53.84424 25.49779 lineto
54.12755 25.7811 lineto
54.41086 26.0644 lineto
54.69417 26.34772 lineto
54.97748 26.63103 lineto
55.26079 26.91434 lineto
55.5441 27.19765 lineto
55.82741 27.48096 lineto
56.11072 27.76427 lineto
56.39403 28.04758 lineto
56.67734 28.33089 lineto stroke
newpath 56.6929 0 moveto
56.6929 0 lineto
56.97621 0.28331 lineto
57.25952 0.56662 lineto
57.54283 0.84993 lineto
57.82614 1.13324 lineto
58.10945 1.41655 lineto
58.39276 1.69986 lineto
58.67606 1.98315 lineto
58.95937 2.26646 lineto
59.24268 2.54977 lineto
59.52599 2.83308 lineto
59.8093 3.1164 lineto
60.0926 3.3997 lineto
60.37592 3.68301 lineto
60.65923 3.96632 lineto
60.94254 4.24963 lineto
61.22585 4.53294 lineto
61.50916 4.81625 lineto
61.79247 5.09956 lineto
62.07578 5.38287 lineto
62.35909 5.66618 lineto
62.64238 5.94948 lineto
62.92569 6.23279 lineto
63.209 6.5161 lineto
63.49231 6.79941 lineto
63.77562 7.08272 lineto
64.05893 7.36603 lineto
64.34224 7.64934 lineto
64.62555 7.93265 lineto
64.90886 8.21596 lineto
65.19217 8.49927 lineto
65.47548 8.78258 lineto
65.75879 9.06589 lineto
66.0421 9.3492 lineto
66.3254 9.63249 lineto
66.6087 9.9158 lineto
66.89201 10.19911 lineto
67.17532 10.48242 lineto
67.45863 10.76573 lineto
67.74194 11.04904 lineto
68.02525 11.33235 lineto
68.30856 11.61566 lineto
68.59187 11.89897 lineto
68.87518 12.18228 lineto
69.1585 12.46559 lineto
69.4418 12.7489 lineto
69.72511 13.03221 lineto
70.0084 13.3155 lineto
70.29172 13.59882 lineto
70.57503 13.88213 lineto
70.85834 14.16544 lineto
71.14165 14.44875 lineto
71.42496 14.73206 lineto
71.70827 15.01537 lineto
71.99158 15.29868 lineto
72.27489 15.58199 lineto
72.5582 15.8653 lineto
72.8415 16.1486 lineto
73.12482 16.43192 lineto
73.40813 16.71523 lineto
73.69144 16.99854 lineto
73.97473 17.28183 lineto
74.25804 17.56514 lineto
74.54135 17.84845 lineto
74.82466 18.13176 lineto
75.10797 18.41507 lineto
75.39128 18.69838 lineto
75.67459 18.98169 lineto
75.9579 19.265 lineto
76.24121 19.54831 lineto
76.52452 19.83162 lineto
76.80783 20.11493 lineto
77.09114 20.39824 lineto
77.37445 20.68155 lineto
77.65775 20.96484 lineto
77.94106 21.24815 lineto
78.22437 21.53146 lineto
78.50768 21.81477 lineto
78.79099 22.09808 lineto
79.0743 22.3814 lineto
79.3576 22.6647 lineto
79.64091 22.94801 lineto
79.92422 23.23132 lineto
80.20753 23.51463 lineto
80.49084 23.79794 lineto
80.77415 24.08125 lineto
81.05746 24.36456 lineto
81.34076 24.64786 lineto
81.62407 24.93117 lineto
81.90738 25.21448 lineto
82.19069 25.49779 lineto
82.474 25.7811 lineto
82.75731 26.0644 lineto
83.04062 26.34772 lineto
83.32393 26.63103 lineto
83.60724 26.91434 lineto
83.89055 27.19765 lineto
84.17386 27.48096 lineto
84.45717 27.76427 lineto
84.74048 28.04758 lineto
85.02379 28.33089 lineto stroke
newpath 85.03935 0 moveto
85.03935 0 lineto
85.32266 0.28331 lineto
85.60597 0.56662 lineto
85.88928 0.84993 lineto
86.17259 1.13324 lineto
86.4559 1.41655 lineto
86.73921 1.69986 lineto
87.0225 1.98315 lineto
87.30582 2.26646 lineto
87.58913 2.54977 lineto
87.87244 2.83308 lineto
88.15575 3.1164 lineto
88.43906 3.3997 lineto
88.72237 3.68301 lineto
89.00568 3.96632 lineto
89.28899 4.24963 lineto
89.5723 4.53294 lineto
89.8556 4.81625 lineto
90.13892 5.09956 lineto
90.42223 5.38287 lineto
90.70554 5.66618 lineto
90.98883 5.94948 lineto
91.27214 6.23279 lineto
91.55545 6.5161 lineto
91.83876 6.79941 lineto
92.12207 7.08272 lineto
92.40538 7.36603 lineto
92.68869 7.64934 lineto
92.972 7.93265 lineto
93.25531 8.21596 lineto
93.53862 8.49927 lineto
93.82193 8.78258 lineto
94.10524 9.06589 lineto
94.38855 9.3492 lineto
94.67184 9.63249 lineto
94.95515 9.9158 lineto
95.23846 10.19911 lineto
95.52177 10.48242 lineto
95.80508 10.76573 lineto
96.0884 11.04904 lineto
96.3717 11.33235 lineto
96.65501 11.61566 lineto
96.93832 11.89897 lineto
97.22163 12.18228 lineto
97.50494 12.46559 lineto
97.78825 12.7489 lineto
98.07156 13.03221 lineto
98.35486 13.3155 lineto
98.63817 13.59882 lineto
98.92148 13.88213 lineto
99.20479 14.16544 lineto
99.4881 14.44875 lineto
99.77141 14.73206 lineto
100.05472 15.01537 lineto
100.33803 15.29868 lineto
100.62134 15.58199 lineto
100.90465 15.8653 lineto
101.18796 16.1486 lineto
101.47127 16.43192 lineto
101.75458 16.71523 lineto
102.03789 16.99854 lineto
102.32118 17.28183 lineto
102.60449 17.56514 lineto
102.8878 17.84845 lineto
103.17111 18.13176 lineto
103.45442 18.41507 lineto
103.73773 18.69838 lineto
104.02104 18.98169 lineto
104.30435 19.265 lineto
104.58766 19.54831 lineto
104.87097 19.83162 lineto
105.15428 20.11493 lineto
105.43759 20.39824 lineto
105.7209 20.68155 lineto
106.0042 20.96484 lineto
106.2875 21.24815 lineto
106.57082 21.53146 lineto
106.85413 21.81477 lineto
107.13744 22.09808 lineto
107.42075 22.3814 lineto
107.70406 22.6647 lineto
107.98737 22.94801 lineto
108.27068 23.23132 lineto
108.55399 23.51463 lineto
108.8373 23.79794 lineto
109.1206 24.08125 lineto
109.40392 24.36456 lineto
109.68721 24.64786 lineto
109.97052 24.93117 lineto
110.25383 25.21448 lineto
110.53714 25.49779 lineto
110.82045 25.7811 lineto
111.10376 26.0644 lineto
111.38707 26.34772 lineto
111.67038 26.63103 lineto
111.95369 26.91434 lineto
112.237 27.19765 lineto
112.52031 27.48096 lineto
112.80362 27.76427 lineto
113.08693 28.04758 lineto
113.37024 28.33089 lineto stroke
 0 0 0 setrgbcolor 0.5 0 dtransform exch truncate exch idtransform pop setlinewidth
newpath -85.03935 -2.83482 moveto
-85.03935 2.83482 lineto stroke
newpath -56.6929 -2.83482 moveto
-56.6929 2.83482 lineto stroke
newpath -28.34645 -2.83482 moveto
-28.34645 2.83482 lineto stroke
newpath 0 -2.83482 moveto
0 2.83482 lineto stroke
newpath 28.34645 -2.83482 moveto
28.34645 2.83482 lineto stroke
newpath 56.6929 -2.83482 moveto
56.6929 2.83482 lineto stroke
newpath 85.03935 -2.83482 moveto
85.03935 2.83482 lineto stroke
-82.93936 -9.42908 moveto
(\000) cmsy10 6.97382 fshow
-77.51529 -9.42908 moveto
(3) cmr10 6.97382 fshow
-54.59291 -9.42908 moveto
(\000) cmsy10 6.97382 fshow
-49.16884 -9.42908 moveto
(2) cmr10 6.97382 fshow
-26.24646 -9.42908 moveto
(\000) cmsy10 6.97382 fshow
-20.82239 -9.42908 moveto
(1) cmr10 6.97382 fshow
2.09999 -9.42908 moveto
(0) cmr10 6.97382 fshow
30.44644 -9.42908 moveto
(1) cmr10 6.97382 fshow
58.7929 -9.42908 moveto
(2) cmr10 6.97382 fshow
87.13934 -9.42908 moveto
(3) cmr10 6.97382 fshow
 0 0.5 dtransform truncate idtransform setlinewidth pop
newpath -2.83482 0 moveto
2.83482 0 lineto stroke
newpath -2.83482 28.34645 moveto
2.83482 28.34645 lineto stroke
5.83482 26.09932 moveto
(1) cmr10 6.97382 fshow
newpath -113.3858 0 moveto
113.3858 0 lineto stroke
newpath 109.69023 -1.53079 moveto
113.3858 0 lineto
109.69023 1.53079 lineto
 closepath
gsave fill grestore stroke
 0.5 0 dtransform exch truncate exch idtransform pop setlinewidth
newpath 0 -28.34645 moveto
0 56.6929 lineto stroke
 0 0.5 dtransform truncate idtransform setlinewidth pop
newpath 1.53094 52.99695 moveto
0 56.6929 lineto
-1.53094 52.99695 lineto
 closepath
gsave fill grestore stroke
showpage
%%EOF
